2-temperature_flourescence/data/60C/23_059.9C.csv

Record Length,2500,Points,response time,response voltage,,Record Length,2500,Points,signal time,signal voltage,
Sample Interval,1.9999999E-9,s,-138.0000043E-9,-1.6000000E-3,,Sample Interval,1.9999999E-9,s,-138.0000043E-9,199.99998808E-3,
Trigger Point,70.000000666,Samples,-135.9999970E-9,-1.6000000E-3,,Trigger Point,70.000000666,Samples,-135.9999970E-9,199.99998808E-3,
,,,-134.0000040E-9,-1.6000000E-3,,,,,-134.0000040E-9,199.99998808E-3,
,,,-131.9999967E-9,-1.6000000E-3,,,,,-131.9999967E-9,199.99998808E-3,
,,,-130.0000037E-9,-1.6000000E-3,,,,,-130.0000037E-9,199.99998808E-3,
Source,CH1,,-127.9999964E-9,-1.6000000E-3,,Source,CH2,,-127.9999964E-9,199.99998808E-3,
Vertical Units,Volts,,-126.0000033E-9,-1.6000000E-3,,Vertical Units,Volts,,-126.0000033E-9,199.99998808E-3,
Vertical Scale,19.9999995E-3,,-123.9999960E-9,-1.6000000E-3,,Vertical Scale,999.999977648E-3,,-123.9999960E-9,199.99998808E-3,
Vertical Offset,0,,-122.0000030E-9,-1.6000000E-3,,Vertical Offset,0,,-122.0000030E-9,199.99998808E-3,
Horizontal Units,s,,-119.9999957E-9,-1.6000000E-3,,Horizontal Units,s,,-119.9999957E-9,199.99998808E-3,
Horizontal Scale,499.999985859E-9,,-117.9999956E-9,-1.6000000E-3,,Horizontal Scale,499.999985859E-9,,-117.9999956E-9,199.99998808E-3,
Pt Fmt,Y,,-115.9999954E-9,-1.6000000E-3,,Pt Fmt,Y,,-115.9999954E-9,199.99998808E-3,
Yzero,-2.0000000,,-113.9999952E-9,-1.6000000E-3,,Yzero,-2.96000000,,-113.9999952E-9,199.99998808E-3,
Probe Atten,1.000000,,-111.9999951E-9,-1.6000000E-3,,Probe Atten,1.000000,,-111.9999951E-9,199.99998808E-3,
,,,-109.9999949E-9,-1.6000000E-3,,,,,-109.9999949E-9,199.99998808E-3,
Note,TDS 1012C-EDU - 4:00:41 PM   9/4/2024,,-107.9999947E-9,-1.6000000E-3,,Note,TDS 1012C-EDU - 4:00:41 PM   9/4/2024,,-107.9999947E-9,199.99998808E-3,
,,,-106.0000017E-9,-1.6000000E-3,,,,,-106.0000017E-9,199.99998808E-3,
,,,-104.0000015E-9,-1.6000000E-3,,,,,-104.0000015E-9,199.99998808E-3,
,,,-102.0000013E-9,-1.6000000E-3,,,,,-102.0000013E-9,199.99998808E-3,
,,,-100.0000012E-9,-1.6000000E-3,,,,,-100.0000012E-9,199.99998808E-3,
,,,-98.000001003E-9,-1.6000000E-3,,,,,-98.000001003E-9,199.99998808E-3,
,,,-96.000000838E-9,-1.6000000E-3,,,,,-96.000000838E-9,199.99998808E-3,
,,,-94.000000672E-9,-1.6000000E-3,,,,,-94.000000672E-9,199.99998808E-3,
,,,-92.000000507E-9,-1.6000000E-3,,,,,-92.000000507E-9,199.99998808E-3,
,,,-90.000000341E-9,-1.6000000E-3,,,,,-90.000000341E-9,199.99998808E-3,
,,,-88.000000176E-9,-1.6000000E-3,,,,,-88.000000176E-9,199.99998808E-3,
,,,-86.000000010E-9,-1.6000000E-3,,,,,-86.000000010E-9,199.99998808E-3,
,,,-83.999999845E-9,-1.6000000E-3,,,,,-83.999999845E-9,199.99998808E-3,
,,,-81.999999679E-9,-1.6000000E-3,,,,,-81.999999679E-9,199.99998808E-3,
,,,-79.999999514E-9,-1.6000000E-3,,,,,-79.999999514E-9,199.99998808E-3,
,,,-77.999999348E-9,-1.6000000E-3,,,,,-77.999999348E-9,199.99998808E-3,
,,,-75.999999183E-9,-1.6000000E-3,,,,,-75.999999183E-9,199.99998808E-3,
,,,-73.999999017E-9,-1.6000000E-3,,,,,-73.999999017E-9,199.99998808E-3,
,,,-71.999998852E-9,-1.6000000E-3,,,,,-71.999998852E-9,199.99998808E-3,
,,,-69.999998686E-9,-1.6000000E-3,,,,,-69.999998686E-9,199.99998808E-3,
,,,-67.999998521E-9,-1.6000000E-3,,,,,-67.999998521E-9,199.99998808E-3,
,,,-65.999998355E-9,-1.6000000E-3,,,,,-65.999998355E-9,199.99998808E-3,
,,,-63.999998190E-9,-1.6000000E-3,,,,,-63.999998190E-9,199.99998808E-3,
,,,-61.999998024E-9,-1.6000000E-3,,,,,-61.999998024E-9,199.99998808E-3,
,,,-59.999997859E-9,-1.6000000E-3,,,,,-59.999997859E-9,199.99998808E-3,
,,,-58.000001246E-9,-1.6000000E-3,,,,,-58.000001246E-9,199.99998808E-3,
,,,-56.000001081E-9,-1.6000000E-3,,,,,-56.000001081E-9,199.99998808E-3,
,,,-54.00000092E-9,-1.6000000E-3,,,,,-54.00000092E-9,199.99998808E-3,
,,,-52.00000075E-9,-1.6000000E-3,,,,,-52.00000075E-9,199.99998808E-3,
,,,-50.00000058E-9,-1.6000000E-3,,,,,-50.00000058E-9,199.99998808E-3,
,,,-48.00000042E-9,-1.6000000E-3,,,,,-48.00000042E-9,199.99998808E-3,
,,,-46.00000025E-9,-1.6000000E-3,,,,,-46.00000025E-9,199.99998808E-3,
,,,-44.00000009E-9,-1.6000000E-3,,,,,-44.00000009E-9,199.99998808E-3,
,,,-41.99999992E-9,-1.6000000E-3,,,,,-41.99999992E-9,199.99998808E-3,
,,,-39.99999976E-9,-1.6000000E-3,,,,,-39.99999976E-9,199.99998808E-3,
,,,-37.99999959E-9,-1.6000000E-3,,,,,-37.99999959E-9,199.99998808E-3,
,,,-35.99999943E-9,-1.6000000E-3,,,,,-35.99999943E-9,199.99998808E-3,
,,,-33.99999926E-9,-1.6000000E-3,,,,,-33.99999926E-9,199.99998808E-3,
,,,-31.99999909E-9,-1.6000000E-3,,,,,-31.99999909E-9,199.99998808E-3,
,,,-29.99999893E-9,-1.6000000E-3,,,,,-29.99999893E-9,199.99998808E-3,
,,,-28.00000054E-9,-1.6000000E-3,,,,,-28.00000054E-9,199.99998808E-3,
,,,-26.00000037E-9,-1.6000000E-3,,,,,-26.00000037E-9,199.99998808E-3,
,,,-24.00000021E-9,-1.6000000E-3,,,,,-24.00000021E-9,199.99998808E-3,
,,,-22.00000004E-9,-1.6000000E-3,,,,,-22.00000004E-9,199.99998808E-3,
,,,-20.0000017E-9,-1.6000000E-3,,,,,-20.0000017E-9,199.99998808E-3,
,,,-18.0000015E-9,-1.6000000E-3,,,,,-18.0000015E-9,199.99998808E-3,
,,,-16.0000013E-9,-1.6000000E-3,,,,,-16.0000013E-9,199.99998808E-3,
,,,-14.0000012E-9,-1.6000000E-3,,,,,-14.0000012E-9,199.99998808E-3,
,,,-12.0000010E-9,-1.6000000E-3,,,,,-12.0000010E-9,199.99998808E-3,
,,,-10.0000008E-9,-1.6000000E-3,,,,,-10.0000008E-9,199.99998808E-3,
,,,-8.000000662E-9,-1.6000000E-3,,,,,-8.000000662E-9,199.99998808E-3,
,,,-6.00000138E-9,-1.6000000E-3,,,,,-6.00000138E-9,199.99998808E-3,
,,,-4.00000122E-9,-1.6000000E-3,,,,,-4.00000122E-9,199.99998808E-3,
,,,-2.0000013E-9,-1.6000000E-3,,,,,-2.0000013E-9,199.99998808E-3,
,,,-1.3322676E-15,-1.6000000E-3,,,,,-1.3322676E-15,199.99998808E-3,
,,,1.9999986E-9,-1.6000000E-3,,,,,1.9999986E-9,199.99998808E-3,
,,,3.99999855E-9,-1.6000000E-3,,,,,3.99999855E-9,199.99998808E-3,
,,,5.99999872E-9,-1.6000000E-3,,,,,5.99999872E-9,199.99998808E-3,
,,,7.999998886E-9,-1.6000000E-3,,,,,7.999998886E-9,199.99998808E-3,
,,,9.999998163E-9,-1.6000000E-3,,,,,9.999998163E-9,199.99998808E-3,
,,,11.9999983E-9,-1.6000000E-3,,,,,11.9999983E-9,199.99998808E-3,
,,,13.9999985E-9,-1.6000000E-3,,,,,13.9999985E-9,199.99998808E-3,
,,,15.9999978E-9,-1.6000000E-3,,,,,15.9999978E-9,479.999989271E-3,
,,,17.9999979E-9,-1.6000000E-3,,,,,17.9999979E-9,1.3199999,
,,,19.9999981E-9,-1.6000000E-3,,,,,19.9999981E-9,1.7600000,
,,,21.99999827E-9,-1.6000000E-3,,,,,21.99999827E-9,1.8000000,
,,,23.99999843E-9,-1.6000000E-3,,,,,23.99999843E-9,1.8399999,
,,,25.99999860E-9,-1.6000000E-3,,,,,25.99999860E-9,1.8399999,
,,,27.99999876E-9,-1.6000000E-3,,,,,27.99999876E-9,1.8399999,
,,,29.99999893E-9,-1.6000000E-3,,,,,29.99999893E-9,1.8800000,
,,,31.99999909E-9,-1.6000000E-3,,,,,31.99999909E-9,1.8800000,
,,,33.99999926E-9,-1.6000000E-3,,,,,33.99999926E-9,1.9599999,
,,,35.99999587E-9,-1.6000000E-3,,,,,35.99999587E-9,2.2800000,
,,,37.99999604E-9,-1.6000000E-3,,,,,37.99999604E-9,2.5999999,
,,,39.99999620E-9,-1.6000000E-3,,,,,39.99999620E-9,2.75999999,
,,,41.99999637E-9,-1.6000000E-3,,,,,41.99999637E-9,2.83999991,
,,,43.99999654E-9,-1.6000000E-3,,,,,43.99999654E-9,2.87999988,
,,,45.99999670E-9,-2.3999999E-3,,,,,45.99999670E-9,2.91999984,
,,,47.99999687E-9,-1.6000000E-3,,,,,47.99999687E-9,2.91999984,
,,,49.99999703E-9,-1.6000000E-3,,,,,49.99999703E-9,2.96000004,
,,,51.99999720E-9,-1.6000000E-3,,,,,51.99999720E-9,3.00000000,
,,,53.99999736E-9,-2.3999999E-3,,,,,53.99999736E-9,3.11999989,
,,,55.999997528E-9,-1.6000000E-3,,,,,55.999997528E-9,3.27999997,
,,,57.999997694E-9,-1.6000000E-3,,,,,57.999997694E-9,3.43999982,
,,,59.999997859E-9,-1.6000000E-3,,,,,59.999997859E-9,3.51999998,
,,,61.999998024E-9,-1.6000000E-3,,,,,61.999998024E-9,3.55999994,
,,,63.999998190E-9,-1.6000000E-3,,,,,63.999998190E-9,3.59999990,
,,,65.999998355E-9,-799.999979790E-6,,,,,65.999998355E-9,3.63999987,
,,,67.999998521E-9,-3.19999992E-3,,,,,67.999998521E-9,3.63999987,
,,,69.999998686E-9,-1.6000000E-3,,,,,69.999998686E-9,3.67999983,
,,,71.999998852E-9,-799.999979790E-6,,,,,71.999998852E-9,3.75999999,
,,,73.999999017E-9,-4.79999976E-3,,,,,73.999999017E-9,3.83999991,
,,,75.999999183E-9,-3.19999992E-3,,,,,75.999999183E-9,3.91999984,
,,,77.999999348E-9,799.999979790E-6,,,,,77.999999348E-9,4.00000000,
,,,79.999999514E-9,-2.3999999E-3,,,,,79.999999514E-9,4.03999996,
,,,81.999999679E-9,-799.999979790E-6,,,,,81.999999679E-9,4.07999992,
,,,83.999992739E-9,-1.6000000E-3,,,,,83.999992739E-9,4.07999992,
,,,85.999992905E-9,-2.3999999E-3,,,,,85.999992905E-9,4.11999989,
,,,87.999993070E-9,0.0,,,,,87.999993070E-9,4.11999989,
,,,89.999993236E-9,0.0,,,,,89.999993236E-9,4.15999985,
,,,91.999993401E-9,-4.79999976E-3,,,,,91.999993401E-9,4.19999981,
,,,93.999993567E-9,-3.19999992E-3,,,,,93.999993567E-9,4.27999973,
,,,95.999993732E-9,-1.6000000E-3,,,,,95.999993732E-9,4.31999969,
,,,97.999993898E-9,-3.19999992E-3,,,,,97.999993898E-9,4.36000013,
,,,99.999994063E-9,0.0,,,,,99.999994063E-9,4.40000010,
,,,101.9999942E-9,0.0,,,,,101.9999942E-9,4.40000010,
,,,103.9999944E-9,-3.19999992E-3,,,,,103.9999944E-9,4.40000010,
,,,105.9999946E-9,-2.3999999E-3,,,,,105.9999946E-9,4.44000006,
,,,107.9999947E-9,1.6000000E-3,,,,,107.9999947E-9,4.44000006,
,,,109.9999949E-9,-1.6000000E-3,,,,,109.9999949E-9,4.48000002,
,,,111.9999951E-9,-3.19999992E-3,,,,,111.9999951E-9,4.51999998,
,,,113.9999952E-9,-1.6000000E-3,,,,,113.9999952E-9,4.51999998,
,,,115.9999954E-9,-3.99999972E-3,,,,,115.9999954E-9,4.55999994,
,,,117.9999956E-9,-3.19999992E-3,,,,,117.9999956E-9,4.59999990,
,,,119.9999957E-9,0.0,,,,,119.9999957E-9,4.59999990,
,,,121.9999888E-9,-799.999979790E-6,,,,,121.9999888E-9,4.63999987,
,,,123.9999960E-9,-2.3999999E-3,,,,,123.9999960E-9,4.63999987,
,,,125.9999891E-9,799.999979790E-6,,,,,125.9999891E-9,4.63999987,
,,,127.9999964E-9,0.0,,,,,127.9999964E-9,4.67999983,
,,,129.9999894E-9,-2.3999999E-3,,,,,129.9999894E-9,4.67999983,
,,,131.9999967E-9,-1.6000000E-3,,,,,131.9999967E-9,4.71999979,
,,,133.9999898E-9,-2.3999999E-3,,,,,133.9999898E-9,4.71999979,
,,,135.9999970E-9,-3.19999992E-3,,,,,135.9999970E-9,4.75999975,
,,,137.9999901E-9,-2.3999999E-3,,,,,137.9999901E-9,4.75999975,
,,,139.9999974E-9,-1.6000000E-3,,,,,139.9999974E-9,4.75999975,
,,,141.9999904E-9,-2.3999999E-3,,,,,141.9999904E-9,4.75999975,
,,,143.9999977E-9,-799.999979790E-6,,,,,143.9999977E-9,4.79999971,
,,,145.9999908E-9,799.999979790E-6,,,,,145.9999908E-9,4.79999971,
,,,147.9999980E-9,0.0,,,,,147.9999980E-9,4.79999971,
,,,149.99999109E-9,-799.999979790E-6,,,,,149.99999109E-9,4.79999971,
,,,151.99999837E-9,-1.6000000E-3,,,,,151.99999837E-9,4.83999968,
,,,153.99999143E-9,-2.3999999E-3,,,,,153.99999143E-9,4.83999968,
,,,155.99999870E-9,-3.19999992E-3,,,,,155.99999870E-9,4.83999968,
,,,157.99999176E-9,-2.3999999E-3,,,,,157.99999176E-9,4.83999968,
,,,159.99999903E-9,-1.6000000E-3,,,,,159.99999903E-9,4.88000011,
,,,161.99999209E-9,-799.999979790E-6,,,,,161.99999209E-9,4.88000011,
,,,163.99999936E-9,-799.999979790E-6,,,,,163.99999936E-9,4.88000011,
,,,165.99999242E-9,0.0,,,,,165.99999242E-9,4.88000011,
,,,167.99999969E-9,0.0,,,,,167.99999969E-9,4.88000011,
,,,169.99999275E-9,-799.999979790E-6,,,,,169.99999275E-9,4.92000008,
,,,172.00000002E-9,-1.6000000E-3,,,,,172.00000002E-9,4.92000008,
,,,173.99999308E-9,-1.6000000E-3,,,,,173.99999308E-9,4.92000008,
,,,176.00000035E-9,-2.3999999E-3,,,,,176.00000035E-9,4.92000008,
,,,177.99999341E-9,-2.3999999E-3,,,,,177.99999341E-9,4.92000008,
,,,180.00000068E-9,-799.999979790E-6,,,,,180.00000068E-9,4.92000008,
,,,181.99999374E-9,799.999979790E-6,,,,,181.99999374E-9,4.92000008,
,,,183.99998680E-9,2.3999999E-3,,,,,183.99998680E-9,4.96000004,
,,,185.99999407E-9,2.3999999E-3,,,,,185.99999407E-9,4.96000004,
,,,187.99998713E-9,2.3999999E-3,,,,,187.99998713E-9,4.96000004,
,,,189.99999440E-9,3.19999992E-3,,,,,189.99999440E-9,4.96000004,
,,,191.99998746E-9,3.19999992E-3,,,,,191.99998746E-9,4.96000004,
,,,193.99999474E-9,3.19999992E-3,,,,,193.99999474E-9,4.96000004,
,,,195.99998780E-9,3.99999972E-3,,,,,195.99998780E-9,4.96000004,
,,,197.99999507E-9,4.79999976E-3,,,,,197.99999507E-9,4.96000004,
,,,199.99998813E-9,6.39999984E-3,,,,,199.99998813E-9,4.96000004,
,,,201.99999540E-9,8.799999952E-3,,,,,201.99999540E-9,5.00000000,
,,,203.99998846E-9,11.1999996E-3,,,,,203.99998846E-9,5.00000000,
,,,205.99999573E-9,12.0000001E-3,,,,,205.99999573E-9,5.00000000,
,,,207.99998879E-9,11.1999996E-3,,,,,207.99998879E-9,5.00000000,
,,,209.99999606E-9,12.7999997E-3,,,,,209.99999606E-9,5.00000000,
,,,211.99998912E-9,14.3999998E-3,,,,,211.99998912E-9,5.00000000,
,,,213.99999639E-9,13.5999992E-3,,,,,213.99999639E-9,5.00000000,
,,,215.99998945E-9,15.1999993E-3,,,,,215.99998945E-9,5.00000000,
,,,217.99999672E-9,15.9999989E-3,,,,,217.99999672E-9,5.00000000,
,,,219.99998978E-9,18.4000004E-3,,,,,219.99998978E-9,5.00000000,
,,,221.99999705E-9,20.80000006E-3,,,,,221.99999705E-9,5.00000000,
,,,223.99999011E-9,21.59999870E-3,,,,,223.99999011E-9,5.00000000,
,,,225.99999738E-9,21.59999870E-3,,,,,225.99999738E-9,5.00000000,
,,,227.99999044E-9,22.39999920E-3,,,,,227.99999044E-9,5.03999996,
,,,229.99999771E-9,22.39999920E-3,,,,,229.99999771E-9,5.03999996,
,,,231.99999077E-9,24.79999885E-3,,,,,231.99999077E-9,5.03999996,
,,,233.99999804E-9,24.79999885E-3,,,,,233.99999804E-9,5.03999996,
,,,235.99999111E-9,25.59999935E-3,,,,,235.99999111E-9,5.03999996,
,,,237.99999838E-9,27.99999900E-3,,,,,237.99999838E-9,5.03999996,
,,,239.99999144E-9,28.79999951E-3,,,,,239.99999144E-9,5.03999996,
,,,241.99999871E-9,29.60000001E-3,,,,,241.99999871E-9,5.03999996,
,,,243.99997756E-9,29.60000001E-3,,,,,243.99997756E-9,5.03999996,
,,,245.99998483E-9,28.79999951E-3,,,,,245.99998483E-9,5.03999996,
,,,247.99999210E-9,27.99999900E-3,,,,,247.99999210E-9,5.03999996,
,,,249.99999937E-9,31.19999915E-3,,,,,249.99999937E-9,5.03999996,
,,,251.99997822E-9,33.59999880E-3,,,,,251.99997822E-9,5.03999996,
,,,253.99998549E-9,36.80000082E-3,,,,,253.99998549E-9,5.03999996,
,,,255.99999276E-9,37.59999946E-3,,,,,255.99999276E-9,5.03999996,
,,,258.00000003E-9,38.39999810E-3,,,,,258.00000003E-9,5.03999996,
,,,259.99997888E-9,39.20000046E-3,,,,,259.99997888E-9,5.03999996,
,,,261.99998615E-9,39.20000046E-3,,,,,261.99998615E-9,5.03999996,
,,,263.99999342E-9,37.59999946E-3,,,,,263.99999342E-9,5.03999996,
,,,266.00000069E-9,36.80000082E-3,,,,,266.00000069E-9,5.03999996,
,,,267.99997954E-9,37.59999946E-3,,,,,267.99997954E-9,5.03999996,
,,,269.99998681E-9,40.79999775E-3,,,,,269.99998681E-9,5.03999996,
,,,271.99999408E-9,41.60000011E-3,,,,,271.99999408E-9,5.03999996,
,,,274.00000135E-9,42.39999875E-3,,,,,274.00000135E-9,5.03999996,
,,,275.99998020E-9,44.79999840E-3,,,,,275.99998020E-9,5.03999996,
,,,277.99998747E-9,45.59999704E-3,,,,,277.99998747E-9,5.03999996,
,,,279.99999475E-9,45.59999704E-3,,,,,279.99999475E-9,5.03999996,
,,,282.00000202E-9,46.39999941E-3,,,,,282.00000202E-9,5.03999996,
,,,283.99998087E-9,44.79999840E-3,,,,,283.99998087E-9,5.07999992,
,,,285.99998814E-9,43.19999740E-3,,,,,285.99998814E-9,5.07999992,
,,,287.99999541E-9,43.99999976E-3,,,,,287.99999541E-9,5.07999992,
,,,290.00000268E-9,48.00000042E-3,,,,,290.00000268E-9,5.07999992,
,,,291.99998153E-9,51.19999871E-3,,,,,291.99998153E-9,5.07999992,
,,,293.99998880E-9,53.59999835E-3,,,,,293.99998880E-9,5.07999992,
,,,295.99999607E-9,54.39999700E-3,,,,,295.99999607E-9,5.07999992,
,,,298.00000334E-9,54.39999700E-3,,,,,298.00000334E-9,5.07999992,
,,,299.99998219E-9,55.199999362E-3,,,,,299.99998219E-9,5.07999992,
,,,301.99998946E-9,55.199999362E-3,,,,,301.99998946E-9,5.07999992,
,,,303.99999673E-9,51.99999735E-3,,,,,303.99999673E-9,5.07999992,
,,,306.00000400E-9,51.19999871E-3,,,,,306.00000400E-9,5.07999992,
,,,307.99998285E-9,53.59999835E-3,,,,,307.99998285E-9,5.07999992,
,,,309.99999012E-9,55.999998003E-3,,,,,309.99999012E-9,5.07999992,
,,,311.99999739E-9,59.200000018E-3,,,,,311.99999739E-9,5.07999992,
,,,313.99997624E-9,60.799997300E-3,,,,,313.99997624E-9,5.07999992,
,,,315.99998351E-9,59.999998659E-3,,,,,315.99998351E-9,5.07999992,
,,,317.99999078E-9,60.799997300E-3,,,,,317.99999078E-9,5.07999992,
,,,319.99999806E-9,60.799997300E-3,,,,,319.99999806E-9,5.07999992,
,,,321.99997690E-9,61.599999666E-3,,,,,321.99997690E-9,5.07999992,
,,,323.99998418E-9,57.599999011E-3,,,,,323.99998418E-9,5.07999992,
,,,325.99999145E-9,56.800000370E-3,,,,,325.99999145E-9,5.07999992,
,,,327.99999872E-9,59.999998659E-3,,,,,327.99999872E-9,5.07999992,
,,,329.99997757E-9,64.800001681E-3,,,,,329.99997757E-9,5.07999992,
,,,331.99998484E-9,67.199997604E-3,,,,,331.99998484E-9,5.07999992,
,,,333.99999211E-9,65.600000322E-3,,,,,333.99999211E-9,5.07999992,
,,,335.99999938E-9,65.600000322E-3,,,,,335.99999938E-9,5.07999992,
,,,337.99997823E-9,67.199997604E-3,,,,,337.99997823E-9,5.07999992,
,,,339.99998550E-9,67.999996245E-3,,,,,339.99998550E-9,5.07999992,
,,,341.99999277E-9,66.399998963E-3,,,,,341.99999277E-9,5.07999992,
,,,344.00000004E-9,65.600000322E-3,,,,,344.00000004E-9,5.07999992,
,,,345.99997889E-9,66.399998963E-3,,,,,345.99997889E-9,5.07999992,
,,,347.99998616E-9,68.799994886E-3,,,,,347.99998616E-9,5.07999992,
,,,349.99999343E-9,69.600000978E-3,,,,,349.99999343E-9,5.07999992,
,,,352.00000070E-9,70.399999619E-3,,,,,352.00000070E-9,5.07999992,
,,,353.99997955E-9,72.799995542E-3,,,,,353.99997955E-9,5.07999992,
,,,355.99998682E-9,75.199998915E-3,,,,,355.99998682E-9,5.07999992,
,,,357.99999409E-9,75.199998915E-3,,,,,357.99999409E-9,5.07999992,
,,,360.00000136E-9,74.400000274E-3,,,,,360.00000136E-9,5.07999992,
,,,361.99998021E-9,72.799995542E-3,,,,,361.99998021E-9,5.07999992,
,,,363.99998748E-9,73.600001633E-3,,,,,363.99998748E-9,5.07999992,
,,,365.99999476E-9,75.199998915E-3,,,,,365.99999476E-9,5.07999992,
,,,368.00000203E-9,77.599994838E-3,,,,,368.00000203E-9,5.07999992,
,,,369.99998088E-9,78.400000930E-3,,,,,369.99998088E-9,5.07999992,
,,,371.99998815E-9,77.599994838E-3,,,,,371.99998815E-9,5.07999992,
,,,373.99999542E-9,78.400000930E-3,,,,,373.99999542E-9,5.07999992,
,,,375.99997427E-9,79.199999571E-3,,,,,375.99997427E-9,5.07999992,
,,,377.99998154E-9,79.999998212E-3,,,,,377.99998154E-9,5.07999992,
,,,379.99998881E-9,79.199999571E-3,,,,,379.99998881E-9,5.07999992,
,,,381.99999608E-9,80.799996853E-3,,,,,381.99999608E-9,5.07999992,
,,,383.99997493E-9,82.400001585E-3,,,,,383.99997493E-9,5.07999992,
,,,385.99998220E-9,82.400001585E-3,,,,,385.99998220E-9,5.07999992,
,,,387.99998947E-9,82.400001585E-3,,,,,387.99998947E-9,5.07999992,
,,,389.99999674E-9,83.200000226E-3,,,,,389.99999674E-9,5.07999992,
,,,391.99997559E-9,82.400001585E-3,,,,,391.99997559E-9,5.07999992,
,,,393.99998286E-9,84.799997509E-3,,,,,393.99998286E-9,5.07999992,
,,,395.99999013E-9,87.200000882E-3,,,,,395.99999013E-9,5.07999992,
,,,397.99999740E-9,87.200000882E-3,,,,,397.99999740E-9,5.07999992,
,,,399.99997625E-9,86.399994791E-3,,,,,399.99997625E-9,5.07999992,
,,,401.99998352E-9,87.200000882E-3,,,,,401.99998352E-9,5.07999992,
,,,403.999990795E-9,90.399995446E-3,,,,,403.999990795E-9,5.07999992,
,,,405.999998065E-9,88.799998164E-3,,,,,405.999998065E-9,5.07999992,
,,,407.999976915E-9,86.399994791E-3,,,,,407.999976915E-9,5.07999992,
,,,409.999984186E-9,87.999999523E-3,,,,,409.999984186E-9,5.07999992,
,,,411.999991456E-9,88.799998164E-3,,,,,411.999991456E-9,5.07999992,
,,,413.999998727E-9,88.799998164E-3,,,,,413.999998727E-9,5.07999992,
,,,415.999977577E-9,88.799998164E-3,,,,,415.999977577E-9,5.07999992,
,,,417.999984847E-9,90.399995446E-3,,,,,417.999984847E-9,5.07999992,
,,,419.999992118E-9,90.399995446E-3,,,,,419.999992118E-9,5.07999992,
,,,421.999999389E-9,92.799998820E-3,,,,,421.999999389E-9,5.07999992,
,,,423.999978238E-9,94.399996102E-3,,,,,423.999978238E-9,5.07999992,
,,,425.999985509E-9,92.000000179E-3,,,,,425.999985509E-9,5.07999992,
,,,427.999992780E-9,91.199994087E-3,,,,,427.999992780E-9,5.07999992,
,,,430.000000051E-9,92.000000179E-3,,,,,430.000000051E-9,5.07999992,
,,,431.999978900E-9,94.399996102E-3,,,,,431.999978900E-9,5.07999992,
,,,433.999986171E-9,92.799998820E-3,,,,,433.999986171E-9,5.07999992,
,,,435.999993442E-9,92.000000179E-3,,,,,435.999993442E-9,5.07999992,
,,,437.999972291E-9,92.799998820E-3,,,,,437.999972291E-9,5.07999992,
,,,439.999979562E-9,95.199994743E-3,,,,,439.999979562E-9,5.07999992,
