2-temperature_flourescence/data/21.5 test.csv

Record Length,2500,Points,-1.8000001E-6,-4.00000019E-3,,Record Length,2500,Points,-1.8000001E-6,159.99999642E-3,
Sample Interval,9.999999939E-9,s,-1.7900001E-6,-4.00000019E-3,,Sample Interval,9.999999939E-9,s,-1.7900001E-6,159.99999642E-3,
Trigger Point,180.00000746,Samples,-1.7800000E-6,-4.00000019E-3,,Trigger Point,180.00000746,Samples,-1.7800000E-6,159.99999642E-3,
,,,-1.7700000E-6,-4.00000019E-3,,,,,-1.7700000E-6,159.99999642E-3,
,,,-1.7600000E-6,-4.00000019E-3,,,,,-1.7600000E-6,159.99999642E-3,
,,,-1.7500000E-6,-4.00000019E-3,,,,,-1.7500000E-6,159.99999642E-3,
Source,CH1,,-1.7400000E-6,-4.00000019E-3,,Source,CH2,,-1.7400000E-6,159.99999642E-3,
Vertical Units,Volts,,-1.7300000E-6,-4.00000019E-3,,Vertical Units,Volts,,-1.7300000E-6,159.99999642E-3,
Vertical Scale,50.00000237E-3,,-1.7200001E-6,-4.00000019E-3,,Vertical Scale,999.999977648E-3,,-1.7200001E-6,159.99999642E-3,
Vertical Offset,0,,-1.7100001E-6,-4.00000019E-3,,Vertical Offset,0,,-1.7100001E-6,159.99999642E-3,
Horizontal Units,s,,-1.7000001E-6,-4.00000019E-3,,Horizontal Units,s,,-1.7000001E-6,159.99999642E-3,
Horizontal Scale,2.5000000E-6,,-1.6900001E-6,-4.00000019E-3,,Horizontal Scale,2.5000000E-6,,-1.6900001E-6,159.99999642E-3,
Pt Fmt,Y,,-1.6800001E-6,-4.00000019E-3,,Pt Fmt,Y,,-1.6800001E-6,159.99999642E-3,
Yzero,-2.2400000,,-1.6700001E-6,-4.00000019E-3,,Yzero,-3.00000000,,-1.6700001E-6,159.99999642E-3,
Probe Atten,1.000000,,-1.6600001E-6,-4.00000019E-3,,Probe Atten,1.000000,,-1.6600001E-6,159.99999642E-3,
,,,-1.6500001E-6,-4.00000019E-3,,,,,-1.6500001E-6,159.99999642E-3,
Note,TDS 1012C-EDU - 2:52:32 PM   9/4/2024,,-1.6400001E-6,-4.00000019E-3,,Note,TDS 1012C-EDU - 2:52:32 PM   9/4/2024,,-1.6400001E-6,159.99999642E-3,
,,,-1.6300000E-6,-4.00000019E-3,,,,,-1.6300000E-6,159.99999642E-3,
,,,-1.6200000E-6,-4.00000019E-3,,,,,-1.6200000E-6,159.99999642E-3,
,,,-1.6100000E-6,-4.00000019E-3,,,,,-1.6100000E-6,159.99999642E-3,
,,,-1.6000000E-6,-4.00000019E-3,,,,,-1.6000000E-6,159.99999642E-3,
,,,-1.5900000E-6,-4.00000019E-3,,,,,-1.5900000E-6,159.99999642E-3,
,,,-1.5800001E-6,-4.00000019E-3,,,,,-1.5800001E-6,159.99999642E-3,
,,,-1.5700001E-6,-4.00000019E-3,,,,,-1.5700001E-6,159.99999642E-3,
,,,-1.5600001E-6,-4.00000019E-3,,,,,-1.5600001E-6,159.99999642E-3,
,,,-1.5500001E-6,-4.00000019E-3,,,,,-1.5500001E-6,159.99999642E-3,
,,,-1.5400001E-6,-4.00000019E-3,,,,,-1.5400001E-6,159.99999642E-3,
,,,-1.5300001E-6,-4.00000019E-3,,,,,-1.5300001E-6,159.99999642E-3,
,,,-1.5200001E-6,-4.00000019E-3,,,,,-1.5200001E-6,159.99999642E-3,
,,,-1.5100001E-6,-4.00000019E-3,,,,,-1.5100001E-6,159.99999642E-3,
,,,-1.5000001E-6,-4.00000019E-3,,,,,-1.5000001E-6,159.99999642E-3,
,,,-1.4900000E-6,-4.00000019E-3,,,,,-1.4900000E-6,159.99999642E-3,
,,,-1.4800000E-6,-4.00000019E-3,,,,,-1.4800000E-6,159.99999642E-3,
,,,-1.4700000E-6,-4.00000019E-3,,,,,-1.4700000E-6,159.99999642E-3,
,,,-1.4600000E-6,-4.00000019E-3,,,,,-1.4600000E-6,159.99999642E-3,
,,,-1.4500000E-6,-4.00000019E-3,,,,,-1.4500000E-6,159.99999642E-3,
,,,-1.4400001E-6,-4.00000019E-3,,,,,-1.4400001E-6,159.99999642E-3,
,,,-1.4300001E-6,-4.00000019E-3,,,,,-1.4300001E-6,159.99999642E-3,
,,,-1.4200001E-6,-4.00000019E-3,,,,,-1.4200001E-6,159.99999642E-3,
,,,-1.4100001E-6,-4.00000019E-3,,,,,-1.4100001E-6,159.99999642E-3,
,,,-1.4000001E-6,-4.00000019E-3,,,,,-1.4000001E-6,159.99999642E-3,
,,,-1.3900001E-6,-4.00000019E-3,,,,,-1.3900001E-6,159.99999642E-3,
,,,-1.3800001E-6,-4.00000019E-3,,,,,-1.3800001E-6,159.99999642E-3,
,,,-1.3700001E-6,-4.00000019E-3,,,,,-1.3700001E-6,159.99999642E-3,
,,,-1.3600001E-6,-4.00000019E-3,,,,,-1.3600001E-6,159.99999642E-3,
,,,-1.3500000E-6,-4.00000019E-3,,,,,-1.3500000E-6,159.99999642E-3,
,,,-1.3400000E-6,-4.00000019E-3,,,,,-1.3400000E-6,159.99999642E-3,
,,,-1.3300000E-6,-4.00000019E-3,,,,,-1.3300000E-6,159.99999642E-3,
,,,-1.3200000E-6,-4.00000019E-3,,,,,-1.3200000E-6,159.99999642E-3,
,,,-1.3100000E-6,-4.00000019E-3,,,,,-1.3100000E-6,159.99999642E-3,
,,,-1.3000001E-6,-4.00000019E-3,,,,,-1.3000001E-6,159.99999642E-3,
,,,-1.2900001E-6,-4.00000019E-3,,,,,-1.2900001E-6,159.99999642E-3,
,,,-1.2800001E-6,-4.00000019E-3,,,,,-1.2800001E-6,159.99999642E-3,
,,,-1.2700001E-6,-4.00000019E-3,,,,,-1.2700001E-6,159.99999642E-3,
,,,-1.2600001E-6,-4.00000019E-3,,,,,-1.2600001E-6,159.99999642E-3,
,,,-1.2500001E-6,-4.00000019E-3,,,,,-1.2500001E-6,159.99999642E-3,
,,,-1.2400001E-6,-4.00000019E-3,,,,,-1.2400001E-6,159.99999642E-3,
,,,-1.2300001E-6,-4.00000019E-3,,,,,-1.2300001E-6,159.99999642E-3,
,,,-1.2200001E-6,-4.00000019E-3,,,,,-1.2200001E-6,159.99999642E-3,
,,,-1.2100001E-6,-4.00000019E-3,,,,,-1.2100001E-6,159.99999642E-3,
,,,-1.2000000E-6,-4.00000019E-3,,,,,-1.2000000E-6,159.99999642E-3,
,,,-1.1900000E-6,-4.00000019E-3,,,,,-1.1900000E-6,159.99999642E-3,
,,,-1.1800000E-6,-4.00000019E-3,,,,,-1.1800000E-6,159.99999642E-3,
,,,-1.1700000E-6,-4.00000019E-3,,,,,-1.1700000E-6,159.99999642E-3,
,,,-1.1600000E-6,-4.00000019E-3,,,,,-1.1600000E-6,159.99999642E-3,
,,,-1.1500001E-6,-4.00000019E-3,,,,,-1.1500001E-6,159.99999642E-3,
,,,-1.1400001E-6,-4.00000019E-3,,,,,-1.1400001E-6,159.99999642E-3,
,,,-1.1300001E-6,-4.00000019E-3,,,,,-1.1300001E-6,159.99999642E-3,
,,,-1.1200001E-6,-4.00000019E-3,,,,,-1.1200001E-6,159.99999642E-3,
,,,-1.1100001E-6,-4.00000019E-3,,,,,-1.1100001E-6,159.99999642E-3,
,,,-1.1000001E-6,-4.00000019E-3,,,,,-1.1000001E-6,159.99999642E-3,
,,,-1.0900001E-6,-4.00000019E-3,,,,,-1.0900001E-6,159.99999642E-3,
,,,-1.0800001E-6,-4.00000019E-3,,,,,-1.0800001E-6,159.99999642E-3,
,,,-1.0700001E-6,-4.00000019E-3,,,,,-1.0700001E-6,159.99999642E-3,
,,,-1.0600000E-6,-4.00000019E-3,,,,,-1.0600000E-6,159.99999642E-3,
,,,-1.0500000E-6,-4.00000019E-3,,,,,-1.0500000E-6,159.99999642E-3,
,,,-1.0400000E-6,-4.00000019E-3,,,,,-1.0400000E-6,159.99999642E-3,
,,,-1.0300000E-6,-4.00000019E-3,,,,,-1.0300000E-6,159.99999642E-3,
,,,-1.0200000E-6,-4.00000019E-3,,,,,-1.0200000E-6,159.99999642E-3,
,,,-1.0100001E-6,-4.00000019E-3,,,,,-1.0100001E-6,159.99999642E-3,
,,,-1.0000001E-6,-4.00000019E-3,,,,,-1.0000001E-6,159.99999642E-3,
,,,-990.000103229E-9,-4.00000019E-3,,,,,-990.000103229E-9,159.99999642E-3,
,,,-980.000095296E-9,-4.00000019E-3,,,,,-980.000095296E-9,159.99999642E-3,
,,,-970.000087364E-9,-4.00000019E-3,,,,,-970.000087364E-9,159.99999642E-3,
,,,-960.000079431E-9,-4.00000019E-3,,,,,-960.000079431E-9,159.99999642E-3,
,,,-950.000071498E-9,-4.00000019E-3,,,,,-950.000071498E-9,159.99999642E-3,
,,,-940.000063565E-9,-4.00000019E-3,,,,,-940.000063565E-9,159.99999642E-3,
,,,-930.000055632E-9,-4.00000019E-3,,,,,-930.000055632E-9,159.99999642E-3,
,,,-920.000047699E-9,-4.00000019E-3,,,,,-920.000047699E-9,159.99999642E-3,
,,,-910.000096610E-9,-4.00000019E-3,,,,,-910.000096610E-9,159.99999642E-3,
,,,-900.000088677E-9,-4.00000019E-3,,,,,-900.000088677E-9,159.99999642E-3,
,,,-890.000080744E-9,-4.00000019E-3,,,,,-890.000080744E-9,159.99999642E-3,
,,,-880.000072812E-9,-4.00000019E-3,,,,,-880.000072812E-9,159.99999642E-3,
,,,-870.000064879E-9,-4.00000019E-3,,,,,-870.000064879E-9,159.99999642E-3,
,,,-860.000056946E-9,-4.00000019E-3,,,,,-860.000056946E-9,159.99999642E-3,
,,,-850.000049013E-9,-4.00000019E-3,,,,,-850.000049013E-9,159.99999642E-3,
,,,-840.000097924E-9,-4.00000019E-3,,,,,-840.000097924E-9,159.99999642E-3,
,,,-830.000089991E-9,-4.00000019E-3,,,,,-830.000089991E-9,159.99999642E-3,
,,,-820.000082058E-9,-4.00000019E-3,,,,,-820.000082058E-9,159.99999642E-3,
,,,-810.000074125E-9,-4.00000019E-3,,,,,-810.000074125E-9,159.99999642E-3,
,,,-800.000066192E-9,-4.00000019E-3,,,,,-800.000066192E-9,159.99999642E-3,
,,,-790.000058259E-9,-4.00000019E-3,,,,,-790.000058259E-9,159.99999642E-3,
,,,-780.000050327E-9,-4.00000019E-3,,,,,-780.000050327E-9,159.99999642E-3,
,,,-770.000042394E-9,-4.00000019E-3,,,,,-770.000042394E-9,159.99999642E-3,
,,,-760.000091304E-9,-4.00000019E-3,,,,,-760.000091304E-9,159.99999642E-3,
,,,-750.000083372E-9,-4.00000019E-3,,,,,-750.000083372E-9,159.99999642E-3,
,,,-740.000075439E-9,-4.00000019E-3,,,,,-740.000075439E-9,159.99999642E-3,
,,,-730.000067506E-9,-4.00000019E-3,,,,,-730.000067506E-9,159.99999642E-3,
,,,-720.000059573E-9,-4.00000019E-3,,,,,-720.000059573E-9,159.99999642E-3,
,,,-710.000051640E-9,-4.00000019E-3,,,,,-710.000051640E-9,159.99999642E-3,
,,,-700.000043707E-9,-4.00000019E-3,,,,,-700.000043707E-9,159.99999642E-3,
,,,-690.000092618E-9,-4.00000019E-3,,,,,-690.000092618E-9,159.99999642E-3,
,,,-680.000084685E-9,-4.00000019E-3,,,,,-680.000084685E-9,159.99999642E-3,
,,,-670.000076752E-9,-4.00000019E-3,,,,,-670.000076752E-9,159.99999642E-3,
,,,-660.000068819E-9,-4.00000019E-3,,,,,-660.000068819E-9,159.99999642E-3,
,,,-650.000060887E-9,-4.00000019E-3,,,,,-650.000060887E-9,159.99999642E-3,
,,,-640.000052954E-9,-4.00000019E-3,,,,,-640.000052954E-9,159.99999642E-3,
,,,-630.000045021E-9,-4.00000019E-3,,,,,-630.000045021E-9,159.99999642E-3,
,,,-620.000093932E-9,-4.00000019E-3,,,,,-620.000093932E-9,159.99999642E-3,
,,,-610.000085999E-9,-4.00000019E-3,,,,,-610.000085999E-9,159.99999642E-3,
,,,-600.000078066E-9,-4.00000019E-3,,,,,-600.000078066E-9,159.99999642E-3,
,,,-590.000070133E-9,-4.00000019E-3,,,,,-590.000070133E-9,159.99999642E-3,
,,,-580.000062200E-9,-4.00000019E-3,,,,,-580.000062200E-9,159.99999642E-3,
,,,-570.000054267E-9,-4.00000019E-3,,,,,-570.000054267E-9,159.99999642E-3,
,,,-560.000046335E-9,-4.00000019E-3,,,,,-560.000046335E-9,159.99999642E-3,
,,,-550.000095245E-9,-4.00000019E-3,,,,,-550.000095245E-9,199.99998808E-3,
,,,-540.000087312E-9,-4.00000019E-3,,,,,-540.000087312E-9,159.99999642E-3,
,,,-530.000079380E-9,-4.00000019E-3,,,,,-530.000079380E-9,159.99999642E-3,
,,,-520.000071447E-9,-4.00000019E-3,,,,,-520.000071447E-9,159.99999642E-3,
,,,-510.000063514E-9,-4.00000019E-3,,,,,-510.000063514E-9,159.99999642E-3,
,,,-500.000055581E-9,-4.00000019E-3,,,,,-500.000055581E-9,159.99999642E-3,
,,,-490.000047648E-9,-4.00000019E-3,,,,,-490.000047648E-9,159.99999642E-3,
,,,-480.000096559E-9,-4.00000019E-3,,,,,-480.000096559E-9,159.99999642E-3,
,,,-470.000060204E-9,-4.00000019E-3,,,,,-470.000060204E-9,199.99998808E-3,
,,,-460.000080693E-9,-4.00000019E-3,,,,,-460.000080693E-9,159.99999642E-3,
,,,-450.000072760E-9,-4.00000019E-3,,,,,-450.000072760E-9,159.99999642E-3,
,,,-440.000064827E-9,-4.00000019E-3,,,,,-440.000064827E-9,159.99999642E-3,
,,,-430.000085316E-9,-4.00000019E-3,,,,,-430.000085316E-9,159.99999642E-3,
,,,-420.000077384E-9,-4.00000019E-3,,,,,-420.000077384E-9,159.99999642E-3,
,,,-410.000069451E-9,-4.00000019E-3,,,,,-410.000069451E-9,159.99999642E-3,
,,,-400.00006152E-9,-4.00000019E-3,,,,,-400.00006152E-9,159.99999642E-3,
,,,-390.00008201E-9,-4.00000019E-3,,,,,-390.00008201E-9,159.99999642E-3,
,,,-380.00007407E-9,-4.00000019E-3,,,,,-380.00007407E-9,159.99999642E-3,
,,,-370.00006614E-9,-4.00000019E-3,,,,,-370.00006614E-9,159.99999642E-3,
,,,-360.00005821E-9,-4.00000019E-3,,,,,-360.00005821E-9,159.99999642E-3,
,,,-350.00007870E-9,-4.00000019E-3,,,,,-350.00007870E-9,159.99999642E-3,
,,,-340.00007076E-9,-4.00000019E-3,,,,,-340.00007076E-9,159.99999642E-3,
,,,-330.00006283E-9,-4.00000019E-3,,,,,-330.00006283E-9,159.99999642E-3,
,,,-320.00008332E-9,-4.00000019E-3,,,,,-320.00008332E-9,199.99998808E-3,
,,,-310.00007539E-9,-4.00000019E-3,,,,,-310.00007539E-9,199.99998808E-3,
,,,-300.00006745E-9,-4.00000019E-3,,,,,-300.00006745E-9,159.99999642E-3,
,,,-290.00005952E-9,-4.00000019E-3,,,,,-290.00005952E-9,159.99999642E-3,
,,,-280.00008001E-9,-4.00000019E-3,,,,,-280.00008001E-9,159.99999642E-3,
,,,-270.00007208E-9,-4.00000019E-3,,,,,-270.00007208E-9,159.99999642E-3,
,,,-260.00006415E-9,-4.00000019E-3,,,,,-260.00006415E-9,159.99999642E-3,
,,,-250.00008463E-9,-4.00000019E-3,,,,,-250.00008463E-9,159.99999642E-3,
,,,-240.00007670E-9,-4.00000019E-3,,,,,-240.00007670E-9,159.99999642E-3,
,,,-230.00006877E-9,-4.00000019E-3,,,,,-230.00006877E-9,159.99999642E-3,
,,,-220.00007505E-9,-4.00000019E-3,,,,,-220.00007505E-9,159.99999642E-3,
,,,-210.00006711E-9,-4.00000019E-3,,,,,-210.00006711E-9,159.99999642E-3,
,,,-200.00007339E-9,-4.00000019E-3,,,,,-200.00007339E-9,159.99999642E-3,
,,,-190.00007967E-9,-4.00000019E-3,,,,,-190.00007967E-9,199.99998808E-3,
,,,-180.00007174E-9,-4.00000019E-3,,,,,-180.00007174E-9,159.99999642E-3,
,,,-170.00007801E-9,-4.00000019E-3,,,,,-170.00007801E-9,159.99999642E-3,
,,,-160.00007008E-9,-4.00000019E-3,,,,,-160.00007008E-9,199.99998808E-3,
,,,-150.00007636E-9,-4.00000019E-3,,,,,-150.00007636E-9,159.99999642E-3,
,,,-140.0000684E-9,-4.00000019E-3,,,,,-140.0000684E-9,159.99999642E-3,
,,,-130.0000747E-9,-4.00000019E-3,,,,,-130.0000747E-9,159.99999642E-3,
,,,-120.0000668E-9,-4.00000019E-3,,,,,-120.0000668E-9,159.99999642E-3,
,,,-110.0000731E-9,-4.00000019E-3,,,,,-110.0000731E-9,159.99999642E-3,
,,,-100.0000722E-9,-4.00000019E-3,,,,,-100.0000722E-9,199.99998808E-3,
,,,-90.000071395E-9,-4.00000019E-3,,,,,-90.000071395E-9,199.99998808E-3,
,,,-80.000077674E-9,-4.00000019E-3,,,,,-80.000077674E-9,159.99999642E-3,
,,,-70.000076846E-9,-4.00000019E-3,,,,,-70.000076846E-9,159.99999642E-3,
,,,-60.000076019E-9,-4.00000019E-3,,,,,-60.000076019E-9,199.99998808E-3,
,,,-50.00007519E-9,-4.00000019E-3,,,,,-50.00007519E-9,199.99998808E-3,
,,,-40.00007436E-9,-4.00000019E-3,,,,,-40.00007436E-9,159.99999642E-3,
,,,-30.00007354E-9,-4.00000019E-3,,,,,-30.00007354E-9,159.99999642E-3,
,,,-20.0000745E-9,-4.00000019E-3,,,,,-20.0000745E-9,159.99999642E-3,
,,,-10.0000745E-9,-4.00000019E-3,,,,,-10.0000745E-9,199.99998808E-3,
,,,-74.606986284E-15,-4.00000019E-3,,,,,-74.606986284E-15,199.99998808E-3,
,,,9.999925332E-9,-4.00000019E-3,,,,,9.999925332E-9,159.99999642E-3,
,,,19.9999253E-9,-4.00000019E-3,,,,,19.9999253E-9,159.99999642E-3,
,,,29.99992432E-9,-4.00000019E-3,,,,,29.99992432E-9,199.99998808E-3,
,,,39.99992515E-9,-4.00000019E-3,,,,,39.99992515E-9,199.99998808E-3,
,,,49.99992598E-9,-4.00000019E-3,,,,,49.99992598E-9,1.0799999,
,,,59.999926805E-9,-4.00000019E-3,,,,,59.999926805E-9,1.8399999,
,,,69.999927632E-9,-4.00000019E-3,,,,,69.999927632E-9,2.5200000,
,,,79.999921354E-9,-4.00000019E-3,,,,,79.999921354E-9,2.96000004,
,,,89.999922182E-9,-4.00000019E-3,,,,,89.999922182E-9,3.39999986,
,,,99.999923009E-9,-4.00000019E-3,,,,,99.999923009E-9,3.67999983,
,,,109.9999238E-9,-4.00000019E-3,,,,,109.9999238E-9,4.00000000,
,,,119.9999247E-9,-4.00000019E-3,,,,,119.9999247E-9,4.19999981,
,,,129.9999184E-9,-4.00000019E-3,,,,,129.9999184E-9,4.40000010,
,,,139.9999263E-9,-4.00000019E-3,,,,,139.9999263E-9,4.51999998,
,,,149.99992004E-9,-4.00000019E-3,,,,,149.99992004E-9,4.63999987,
,,,159.99992797E-9,-4.00000019E-3,,,,,159.99992797E-9,4.71999979,
,,,169.99992170E-9,-6.00000005E-3,,,,,169.99992170E-9,4.79999971,
,,,179.99992963E-9,-2.0000001E-3,,,,,179.99992963E-9,4.88000011,
,,,189.99992335E-9,-6.00000005E-3,,,,,189.99992335E-9,4.92000008,
,,,199.99993128E-9,-2.0000001E-3,,,,,199.99993128E-9,4.96000004,
,,,209.99992500E-9,-4.00000019E-3,,,,,209.99992500E-9,5.00000000,
,,,219.99991873E-9,0.0,,,,,219.99991873E-9,5.00000000,
,,,229.99992666E-9,6.00000005E-3,,,,,229.99992666E-9,5.03999996,
,,,239.99993459E-9,12.0000001E-3,,,,,239.99993459E-9,5.03999996,
,,,249.99991410E-9,18.0000011E-3,,,,,249.99991410E-9,5.07999992,
,,,259.99992204E-9,24.00000021E-3,,,,,259.99992204E-9,5.07999992,
,,,269.99992997E-9,32.00000152E-3,,,,,269.99992997E-9,5.07999992,
,,,279.99993790E-9,38.00000250E-3,,,,,279.99993790E-9,5.11999989,
,,,289.99991741E-9,44.00000349E-3,,,,,289.99991741E-9,5.11999989,
,,,299.99992535E-9,48.00000042E-3,,,,,299.99992535E-9,5.11999989,
,,,309.99993328E-9,56.000001729E-3,,,,,309.99993328E-9,5.11999989,
,,,319.99991279E-9,58.000002056E-3,,,,,319.99991279E-9,5.11999989,
,,,329.99992072E-9,64.000003040E-3,,,,,329.99992072E-9,5.11999989,
,,,339.99992866E-9,68.000003695E-3,,,,,339.99992866E-9,5.11999989,
,,,349.99993659E-9,74.000000954E-3,,,,,349.99993659E-9,5.11999989,
,,,359.99991610E-9,78.000001609E-3,,,,,359.99991610E-9,5.11999989,
,,,369.99992403E-9,84.000006318E-3,,,,,369.99992403E-9,5.11999989,
,,,379.99993197E-9,88.000006974E-3,,,,,379.99993197E-9,5.11999989,
,,,389.99991148E-9,92.000007629E-3,,,,,389.99991148E-9,5.11999989,
,,,399.99991941E-9,98.000004888E-3,,,,,399.99991941E-9,5.11999989,
,,,409.999927342E-9,98.000004888E-3,,,,,409.999927342E-9,5.11999989,
,,,419.999935275E-9,104.0000021E-3,,,,,419.999935275E-9,5.11999989,
,,,429.999914786E-9,106.0000062E-3,,,,,429.999914786E-9,5.11999989,
,,,439.999922719E-9,110.0000069E-3,,,,,439.999922719E-9,5.11999989,
,,,449.999930652E-9,114.0000075E-3,,,,,449.999930652E-9,5.11999989,
,,,459.999910163E-9,116.0000041E-3,,,,,459.999910163E-9,5.11999989,
,,,469.999918096E-9,120.0000048E-3,,,,,469.999918096E-9,5.11999989,
,,,479.999926029E-9,122.0000088E-3,,,,,479.999926029E-9,5.11999989,
,,,489.999933961E-9,126.0000020E-3,,,,,489.999933961E-9,5.11999989,
,,,499.999941894E-9,128.0000061E-3,,,,,499.999941894E-9,5.11999989,
,,,509.999949827E-9,130.0000101E-3,,,,,509.999949827E-9,5.11999989,
,,,519.999900916E-9,136.0000074E-3,,,,,519.999900916E-9,5.11999989,
,,,529.999908849E-9,136.0000074E-3,,,,,529.999908849E-9,5.11999989,
,,,539.999916782E-9,140.0000006E-3,,,,,539.999916782E-9,5.11999989,
,,,549.999924715E-9,142.0000046E-3,,,,,549.999924715E-9,5.11999989,
,,,559.999932648E-9,142.0000046E-3,,,,,559.999932648E-9,5.11999989,
,,,569.999940581E-9,146.0000128E-3,,,,,569.999940581E-9,5.11999989,
,,,579.999948513E-9,150.00000596E-3,,,,,579.999948513E-9,5.11999989,
,,,589.999899603E-9,154.00001407E-3,,,,,589.999899603E-9,5.11999989,
,,,599.999907536E-9,154.00001407E-3,,,,,599.999907536E-9,5.11999989,
,,,609.999915469E-9,152.00001001E-3,,,,,609.999915469E-9,5.11999989,
,,,619.999923401E-9,160.00001132E-3,,,,,619.999923401E-9,5.11999989,
,,,629.999931334E-9,156.00000322E-3,,,,,629.999931334E-9,5.11999989,
,,,639.999939267E-9,164.00000453E-3,,,,,639.999939267E-9,5.11999989,
,,,649.999947200E-9,156.00000322E-3,,,,,649.999947200E-9,5.11999989,
,,,659.999898289E-9,164.00000453E-3,,,,,659.999898289E-9,5.11999989,
,,,669.999906222E-9,160.00001132E-3,,,,,669.999906222E-9,5.11999989,
,,,679.999914155E-9,166.00000858E-3,,,,,679.999914155E-9,5.11999989,
,,,689.999922088E-9,166.00000858E-3,,,,,689.999922088E-9,5.11999989,
,,,699.999930021E-9,168.00001264E-3,,,,,699.999930021E-9,5.11999989,
,,,709.999937953E-9,166.00000858E-3,,,,,709.999937953E-9,5.11999989,
,,,719.999945886E-9,172.00000584E-3,,,,,719.999945886E-9,5.11999989,
,,,729.999896976E-9,166.00000858E-3,,,,,729.999896976E-9,5.11999989,
,,,739.999904908E-9,172.00000584E-3,,,,,739.999904908E-9,5.11999989,
,,,749.999912841E-9,170.00000179E-3,,,,,749.999912841E-9,5.11999989,
,,,759.999920774E-9,174.00000989E-3,,,,,759.999920774E-9,5.11999989,
,,,769.999928707E-9,170.00000179E-3,,,,,769.999928707E-9,5.11999989,
,,,779.999936640E-9,178.00000310E-3,,,,,779.999936640E-9,5.11999989,
,,,789.999944573E-9,172.00000584E-3,,,,,789.999944573E-9,5.11999989,
,,,799.999895662E-9,178.00000310E-3,,,,,799.999895662E-9,5.11999989,
,,,809.999903595E-9,174.00000989E-3,,,,,809.999903595E-9,5.11999989,
,,,819.999911528E-9,180.00000715E-3,,,,,819.999911528E-9,5.11999989,
,,,829.999919461E-9,172.00000584E-3,,,,,829.999919461E-9,5.11999989,
,,,839.999927393E-9,182.00001121E-3,,,,,839.999927393E-9,5.11999989,
,,,849.999935326E-9,176.00001395E-3,,,,,849.999935326E-9,5.11999989,
,,,859.999943259E-9,182.00001121E-3,,,,,859.999943259E-9,5.11999989,
,,,869.999894348E-9,180.00000715E-3,,,,,869.999894348E-9,5.11999989,
,,,879.999902281E-9,184.00001526E-3,,,,,879.999902281E-9,5.11999989,
,,,889.999910214E-9,186.00000441E-3,,,,,889.999910214E-9,5.07999992,
,,,899.999918147E-9,184.00001526E-3,,,,,899.999918147E-9,5.11999989,
,,,909.999926080E-9,192.00000167E-3,,,,,909.999926080E-9,5.07999992,
,,,919.999934013E-9,186.00000441E-3,,,,,919.999934013E-9,5.11999989,
,,,929.999941945E-9,190.00001252E-3,,,,,929.999941945E-9,5.11999989,
,,,939.999893035E-9,188.00000846E-3,,,,,939.999893035E-9,5.11999989,
,,,949.999900968E-9,192.00000167E-3,,,,,949.999900968E-9,5.07999992,
,,,959.999965744E-9,188.00000846E-3,,,,,959.999965744E-9,5.11999989,
,,,969.999973677E-9,194.00000572E-3,,,,,969.999973677E-9,5.11999989,
