2-temperature_flourescence/data/40C/39.9C.csv

Record Length,2500,Points,response time,response voltage,,Record Length,2500,Points,signal time,signal voltage,
Sample Interval,3.99999989E-9,s,-155.99999870E-9,-1.6000000E-3,,Sample Interval,3.99999989E-9,s,-155.99999870E-9,199.99998808E-3,
Trigger Point,40.00000089,Samples,-151.99999837E-9,-1.6000000E-3,,Trigger Point,40.00000089,Samples,-151.99999837E-9,199.99998808E-3,
,,,-147.9999980E-9,-1.6000000E-3,,,,,-147.9999980E-9,199.99998808E-3,
,,,-143.9999977E-9,-1.6000000E-3,,,,,-143.9999977E-9,199.99998808E-3,
,,,-139.9999974E-9,-1.6000000E-3,,,,,-139.9999974E-9,199.99998808E-3,
Source,CH1,,-135.9999970E-9,-1.6000000E-3,,Source,CH2,,-135.9999970E-9,199.99998808E-3,
Vertical Units,Volts,,-131.9999967E-9,-1.6000000E-3,,Vertical Units,Volts,,-131.9999967E-9,199.99998808E-3,
Vertical Scale,19.9999995E-3,,-127.9999964E-9,-1.6000000E-3,,Vertical Scale,999.999977648E-3,,-127.9999964E-9,199.99998808E-3,
Vertical Offset,0,,-123.9999960E-9,-1.6000000E-3,,Vertical Offset,0,,-123.9999960E-9,199.99998808E-3,
Horizontal Units,s,,-119.9999957E-9,-1.6000000E-3,,Horizontal Units,s,,-119.9999957E-9,199.99998808E-3,
Horizontal Scale,999.999971718E-9,,-116.0000025E-9,-1.6000000E-3,,Horizontal Scale,999.999971718E-9,,-116.0000025E-9,199.99998808E-3,
Pt Fmt,Y,,-112.0000022E-9,-1.6000000E-3,,Pt Fmt,Y,,-112.0000022E-9,199.99998808E-3,
Yzero,-2.0000000,,-108.0000018E-9,-1.6000000E-3,,Yzero,-3.00000000,,-108.0000018E-9,199.99998808E-3,
Probe Atten,1.000000,,-104.0000015E-9,-1.6000000E-3,,Probe Atten,1.000000,,-104.0000015E-9,199.99998808E-3,
,,,-100.0000012E-9,-1.6000000E-3,,,,,-100.0000012E-9,199.99998808E-3,
Note,TDS 1012C-EDU - 3:52:40 PM   9/4/2024,,-96.000000838E-9,-1.6000000E-3,,Note,TDS 1012C-EDU - 3:52:40 PM   9/4/2024,,-96.000000838E-9,199.99998808E-3,
,,,-92.000000507E-9,-1.6000000E-3,,,,,-92.000000507E-9,199.99998808E-3,
,,,-88.000000176E-9,-1.6000000E-3,,,,,-88.000000176E-9,199.99998808E-3,
,,,-83.999999845E-9,-1.6000000E-3,,,,,-83.999999845E-9,199.99998808E-3,
,,,-79.999999514E-9,-1.6000000E-3,,,,,-79.999999514E-9,199.99998808E-3,
,,,-75.999999183E-9,-1.6000000E-3,,,,,-75.999999183E-9,199.99998808E-3,
,,,-71.999998852E-9,-1.6000000E-3,,,,,-71.999998852E-9,199.99998808E-3,
,,,-67.999998521E-9,-1.6000000E-3,,,,,-67.999998521E-9,199.99998808E-3,
,,,-64.000005295E-9,-1.6000000E-3,,,,,-64.000005295E-9,199.99998808E-3,
,,,-60.000004964E-9,-1.6000000E-3,,,,,-60.000004964E-9,199.99998808E-3,
,,,-56.000001081E-9,-1.6000000E-3,,,,,-56.000001081E-9,199.99998808E-3,
,,,-52.00000075E-9,-1.6000000E-3,,,,,-52.00000075E-9,199.99998808E-3,
,,,-48.00000397E-9,-1.6000000E-3,,,,,-48.00000397E-9,199.99998808E-3,
,,,-44.00000364E-9,-1.6000000E-3,,,,,-44.00000364E-9,199.99998808E-3,
,,,-40.00000331E-9,-1.6000000E-3,,,,,-40.00000331E-9,199.99998808E-3,
,,,-36.00000298E-9,-1.6000000E-3,,,,,-36.00000298E-9,199.99998808E-3,
,,,-32.00000265E-9,-1.6000000E-3,,,,,-32.00000265E-9,199.99998808E-3,
,,,-28.00000232E-9,-1.6000000E-3,,,,,-28.00000232E-9,199.99998808E-3,
,,,-24.00000199E-9,-1.6000000E-3,,,,,-24.00000199E-9,199.99998808E-3,
,,,-20.0000034E-9,-1.6000000E-3,,,,,-20.0000034E-9,199.99998808E-3,
,,,-16.0000031E-9,-1.6000000E-3,,,,,-16.0000031E-9,199.99998808E-3,
,,,-12.0000028E-9,-1.6000000E-3,,,,,-12.0000028E-9,199.99998808E-3,
,,,-8.000003326E-9,-1.6000000E-3,,,,,-8.000003326E-9,199.99998808E-3,
,,,-4.00000344E-9,-1.6000000E-3,,,,,-4.00000344E-9,199.99998808E-3,
,,,-3.55271363E-15,-1.6000000E-3,,,,,-3.55271363E-15,199.99998808E-3,
,,,3.99999633E-9,-1.6000000E-3,,,,,3.99999633E-9,199.99998808E-3,
,,,7.999996221E-9,-1.6000000E-3,,,,,7.999996221E-9,319.99999285E-3,
,,,11.9999957E-9,-1.6000000E-3,,,,,11.9999957E-9,1.5200000,
,,,15.9999960E-9,-1.6000000E-3,,,,,15.9999960E-9,1.8399999,
,,,19.9999963E-9,-1.6000000E-3,,,,,19.9999963E-9,1.8399999,
,,,23.99999488E-9,-1.6000000E-3,,,,,23.99999488E-9,1.8800000,
,,,27.99999521E-9,-1.6000000E-3,,,,,27.99999521E-9,2.0799999,
,,,31.99999554E-9,-1.6000000E-3,,,,,31.99999554E-9,2.6799998,
,,,35.99999587E-9,-1.6000000E-3,,,,,35.99999587E-9,2.87999988,
,,,39.99999620E-9,-1.6000000E-3,,,,,39.99999620E-9,2.91999984,
,,,43.99999654E-9,-1.6000000E-3,,,,,43.99999654E-9,2.96000004,
,,,47.99999687E-9,-1.6000000E-3,,,,,47.99999687E-9,3.19999981,
,,,51.99999364E-9,-799.999979790E-6,,,,,51.99999364E-9,3.48000002,
,,,55.999993975E-9,-1.6000000E-3,,,,,55.999993975E-9,3.59999990,
,,,59.999997859E-9,-1.6000000E-3,,,,,59.999997859E-9,3.63999987,
,,,63.999991085E-9,-799.999979790E-6,,,,,63.999991085E-9,3.72000003,
,,,67.999991415E-9,-3.99999972E-3,,,,,67.999991415E-9,3.87999988,
,,,71.999991746E-9,0.0,,,,,71.999991746E-9,4.03999996,
,,,75.999992077E-9,-799.999979790E-6,,,,,75.999992077E-9,4.07999992,
,,,79.999992408E-9,-799.999979790E-6,,,,,79.999992408E-9,4.15999985,
,,,83.999992739E-9,-1.6000000E-3,,,,,83.999992739E-9,4.19999981,
,,,87.999993070E-9,-2.3999999E-3,,,,,87.999993070E-9,4.27999973,
,,,91.999993401E-9,-1.6000000E-3,,,,,91.999993401E-9,4.40000010,
,,,95.999993732E-9,-1.6000000E-3,,,,,95.999993732E-9,4.44000006,
,,,99.999994063E-9,0.0,,,,,99.999994063E-9,4.48000002,
,,,103.9999944E-9,-2.3999999E-3,,,,,103.9999944E-9,4.51999998,
,,,107.9999947E-9,-2.3999999E-3,,,,,107.9999947E-9,4.55999994,
,,,111.9999951E-9,-2.3999999E-3,,,,,111.9999951E-9,4.63999987,
,,,115.9999954E-9,-1.6000000E-3,,,,,115.9999954E-9,4.63999987,
,,,119.9999957E-9,799.999979790E-6,,,,,119.9999957E-9,4.67999983,
,,,123.9999960E-9,-2.3999999E-3,,,,,123.9999960E-9,4.71999979,
,,,127.9999964E-9,-2.3999999E-3,,,,,127.9999964E-9,4.75999975,
,,,131.9999967E-9,-1.6000000E-3,,,,,131.9999967E-9,4.75999975,
,,,135.9999970E-9,-1.6000000E-3,,,,,135.9999970E-9,4.79999971,
,,,139.9999974E-9,0.0,,,,,139.9999974E-9,4.79999971,
,,,143.9999977E-9,-799.999979790E-6,,,,,143.9999977E-9,4.83999968,
,,,147.9999980E-9,-3.19999992E-3,,,,,147.9999980E-9,4.88000011,
,,,151.99999837E-9,-2.3999999E-3,,,,,151.99999837E-9,4.88000011,
,,,155.99999870E-9,-799.999979790E-6,,,,,155.99999870E-9,4.88000011,
,,,159.99998482E-9,0.0,,,,,159.99998482E-9,4.92000008,
,,,163.99998515E-9,-1.6000000E-3,,,,,163.99998515E-9,4.92000008,
,,,167.99998548E-9,-1.6000000E-3,,,,,167.99998548E-9,4.92000008,
,,,171.99998581E-9,-799.999979790E-6,,,,,171.99998581E-9,4.96000004,
,,,175.99998614E-9,1.6000000E-3,,,,,175.99998614E-9,4.96000004,
,,,179.99998647E-9,3.19999992E-3,,,,,179.99998647E-9,4.96000004,
,,,183.99998680E-9,2.3999999E-3,,,,,183.99998680E-9,5.00000000,
,,,187.99998713E-9,3.99999972E-3,,,,,187.99998713E-9,5.00000000,
,,,191.99998746E-9,7.999999449E-3,,,,,191.99998746E-9,5.00000000,
,,,195.99998780E-9,10.4000000E-3,,,,,195.99998780E-9,5.00000000,
,,,199.99998813E-9,13.5999992E-3,,,,,199.99998813E-9,5.00000000,
,,,203.99998846E-9,14.3999998E-3,,,,,203.99998846E-9,5.00000000,
,,,207.99998879E-9,16.7999994E-3,,,,,207.99998879E-9,5.03999996,
,,,211.99998912E-9,20.80000006E-3,,,,,211.99998912E-9,5.03999996,
,,,215.99998945E-9,21.59999870E-3,,,,,215.99998945E-9,5.03999996,
,,,219.99998978E-9,23.19999970E-3,,,,,219.99998978E-9,5.03999996,
,,,223.99999011E-9,27.19999850E-3,,,,,223.99999011E-9,5.03999996,
,,,227.99999044E-9,26.39999986E-3,,,,,227.99999044E-9,5.03999996,
,,,231.99999077E-9,31.99999779E-3,,,,,231.99999077E-9,5.03999996,
,,,235.99999111E-9,36.80000082E-3,,,,,235.99999111E-9,5.07999992,
,,,239.99999144E-9,35.99999845E-3,,,,,239.99999144E-9,5.03999996,
,,,243.99997756E-9,36.80000082E-3,,,,,243.99997756E-9,5.03999996,
,,,247.99999210E-9,39.99999911E-3,,,,,247.99999210E-9,5.07999992,
,,,251.99997822E-9,42.39999875E-3,,,,,251.99997822E-9,5.07999992,
,,,255.99999276E-9,44.79999840E-3,,,,,255.99999276E-9,5.07999992,
,,,259.99997888E-9,43.99999976E-3,,,,,259.99997888E-9,5.07999992,
,,,263.99999342E-9,48.00000042E-3,,,,,263.99999342E-9,5.07999992,
,,,267.99997954E-9,48.79999906E-3,,,,,267.99997954E-9,5.07999992,
,,,271.99999408E-9,51.19999871E-3,,,,,271.99999408E-9,5.07999992,
,,,275.99998020E-9,55.199999362E-3,,,,,275.99998020E-9,5.07999992,
,,,279.99999475E-9,55.999998003E-3,,,,,279.99999475E-9,5.07999992,
,,,283.99998087E-9,55.999998003E-3,,,,,283.99998087E-9,5.07999992,
,,,287.99999541E-9,58.399997652E-3,,,,,287.99999541E-9,5.07999992,
,,,291.99998153E-9,63.999995589E-3,,,,,291.99998153E-9,5.07999992,
,,,295.99999607E-9,63.199996948E-3,,,,,295.99999607E-9,5.07999992,
,,,299.99998219E-9,64.800001681E-3,,,,,299.99998219E-9,5.07999992,
,,,303.99999673E-9,65.600000322E-3,,,,,303.99999673E-9,5.07999992,
,,,307.99998285E-9,66.399998963E-3,,,,,307.99998285E-9,5.07999992,
,,,311.99999739E-9,71.999996901E-3,,,,,311.99999739E-9,5.07999992,
,,,315.99998351E-9,71.199998260E-3,,,,,315.99998351E-9,5.07999992,
,,,319.99999806E-9,71.999996901E-3,,,,,319.99999806E-9,5.07999992,
,,,323.99998418E-9,70.399999619E-3,,,,,323.99998418E-9,5.07999992,
,,,327.99999872E-9,75.199998915E-3,,,,,327.99999872E-9,5.07999992,
,,,331.99998484E-9,76.799996197E-3,,,,,331.99998484E-9,5.07999992,
,,,335.99999938E-9,79.199999571E-3,,,,,335.99999938E-9,5.07999992,
,,,339.99998550E-9,80.799996853E-3,,,,,339.99998550E-9,5.07999992,
,,,344.00000004E-9,79.199999571E-3,,,,,344.00000004E-9,5.07999992,
,,,347.99998616E-9,82.400001585E-3,,,,,347.99998616E-9,5.07999992,
,,,351.99997228E-9,81.599995494E-3,,,,,351.99997228E-9,5.07999992,
,,,355.99998682E-9,83.999998868E-3,,,,,355.99998682E-9,5.07999992,
,,,359.99997294E-9,87.200000882E-3,,,,,359.99997294E-9,5.07999992,
,,,363.99998748E-9,87.200000882E-3,,,,,363.99998748E-9,5.07999992,
,,,367.99997361E-9,87.200000882E-3,,,,,367.99997361E-9,5.07999992,
,,,371.99998815E-9,90.399995446E-3,,,,,371.99998815E-9,5.07999992,
,,,375.99997427E-9,92.799998820E-3,,,,,375.99997427E-9,5.07999992,
,,,379.99998881E-9,94.399996102E-3,,,,,379.99998881E-9,5.07999992,
,,,383.99997493E-9,92.799998820E-3,,,,,383.99997493E-9,5.07999992,
,,,387.99998947E-9,94.399996102E-3,,,,,387.99998947E-9,5.07999992,
,,,391.99997559E-9,92.799998820E-3,,,,,391.99997559E-9,5.07999992,
,,,395.99999013E-9,99.199995399E-3,,,,,395.99999013E-9,5.07999992,
,,,399.99997625E-9,98.399996758E-3,,,,,399.99997625E-9,5.07999992,
,,,403.999990795E-9,99.199995399E-3,,,,,403.999990795E-9,5.07999992,
,,,407.999976915E-9,97.599998116E-3,,,,,407.999976915E-9,5.07999992,
,,,411.999991456E-9,99.199995399E-3,,,,,411.999991456E-9,5.07999992,
,,,415.999977577E-9,101.5999988E-3,,,,,415.999977577E-9,5.07999992,
,,,419.999992118E-9,101.5999988E-3,,,,,419.999992118E-9,5.07999992,
,,,423.999978238E-9,101.5999988E-3,,,,,423.999978238E-9,5.07999992,
,,,427.999992780E-9,102.3999974E-3,,,,,427.999992780E-9,5.07999992,
,,,431.999978900E-9,103.1999961E-3,,,,,431.999978900E-9,5.07999992,
,,,435.999993442E-9,103.9999947E-3,,,,,435.999993442E-9,5.07999992,
,,,439.999979562E-9,107.1999967E-3,,,,,439.999979562E-9,5.07999992,
,,,443.999994104E-9,106.3999981E-3,,,,,443.999994104E-9,5.07999992,
,,,447.999980224E-9,108.7999940E-3,,,,,447.999980224E-9,5.07999992,
,,,451.999994766E-9,106.3999981E-3,,,,,451.999994766E-9,5.07999992,
,,,455.999980886E-9,107.9999954E-3,,,,,455.999980886E-9,5.07999992,
,,,459.999995428E-9,110.3999987E-3,,,,,459.999995428E-9,5.07999992,
,,,463.999981548E-9,111.1999974E-3,,,,,463.999981548E-9,5.07999992,
,,,467.999996090E-9,111.9999960E-3,,,,,467.999996090E-9,5.07999992,
,,,471.999982210E-9,108.7999940E-3,,,,,471.999982210E-9,5.07999992,
,,,475.999996752E-9,111.1999974E-3,,,,,475.999996752E-9,5.07999992,
,,,479.999982872E-9,114.3999994E-3,,,,,479.999982872E-9,5.07999992,
,,,483.999997414E-9,116.7999953E-3,,,,,483.999997414E-9,5.07999992,
,,,487.999955112E-9,113.6000007E-3,,,,,487.999955112E-9,5.07999992,
,,,491.999969654E-9,113.6000007E-3,,,,,491.999969654E-9,5.07999992,
,,,495.999984196E-9,115.9999967E-3,,,,,495.999984196E-9,5.07999992,
,,,499.999998738E-9,118.4000000E-3,,,,,499.999998738E-9,5.07999992,
,,,503.999956436E-9,119.9999973E-3,,,,,503.999956436E-9,5.07999992,
,,,507.999970978E-9,117.5999939E-3,,,,,507.999970978E-9,5.07999992,
,,,511.999985520E-9,115.9999967E-3,,,,,511.999985520E-9,5.07999992,
,,,516.000000061E-9,119.1999987E-3,,,,,516.000000061E-9,5.07999992,
,,,519.999957760E-9,119.9999973E-3,,,,,519.999957760E-9,5.07999992,
,,,523.999972302E-9,121.5999946E-3,,,,,523.999972302E-9,5.07999992,
,,,527.999986843E-9,120.7999960E-3,,,,,527.999986843E-9,5.07999992,
,,,532.000001385E-9,117.5999939E-3,,,,,532.000001385E-9,5.07999992,
,,,535.999959084E-9,121.5999946E-3,,,,,535.999959084E-9,5.07999992,
,,,539.999973626E-9,122.3999932E-3,,,,,539.999973626E-9,5.07999992,
,,,543.999988167E-9,121.5999946E-3,,,,,543.999988167E-9,5.07999992,
,,,548.000002709E-9,122.3999932E-3,,,,,548.000002709E-9,5.07999992,
,,,551.999960408E-9,121.5999946E-3,,,,,551.999960408E-9,5.07999992,
,,,555.999974949E-9,123.1999993E-3,,,,,555.999974949E-9,5.07999992,
,,,559.999989491E-9,125.5999953E-3,,,,,559.999989491E-9,5.07999992,
,,,564.000004033E-9,123.1999993E-3,,,,,564.000004033E-9,5.07999992,
,,,567.999961731E-9,125.5999953E-3,,,,,567.999961731E-9,5.07999992,
,,,571.999976273E-9,124.7999966E-3,,,,,571.999976273E-9,5.07999992,
,,,575.999990815E-9,124.7999966E-3,,,,,575.999990815E-9,5.07999992,
,,,580.000005357E-9,126.3999939E-3,,,,,580.000005357E-9,5.07999992,
,,,583.999963055E-9,124.7999966E-3,,,,,583.999963055E-9,5.07999992,
,,,587.999977597E-9,125.5999953E-3,,,,,587.999977597E-9,5.07999992,
,,,591.999992139E-9,124.7999966E-3,,,,,591.999992139E-9,5.07999992,
,,,596.000006681E-9,127.1999925E-3,,,,,596.000006681E-9,5.07999992,
,,,599.999964379E-9,127.1999925E-3,,,,,599.999964379E-9,5.07999992,
,,,603.999978921E-9,126.3999939E-3,,,,,603.999978921E-9,5.07999992,
,,,607.999993463E-9,127.1999925E-3,,,,,607.999993463E-9,5.07999992,
,,,611.999951161E-9,127.9999912E-3,,,,,611.999951161E-9,5.07999992,
,,,615.999965703E-9,128.7999898E-3,,,,,615.999965703E-9,5.07999992,
,,,619.999980245E-9,129.6000034E-3,,,,,619.999980245E-9,5.07999992,
,,,623.999994787E-9,129.6000034E-3,,,,,623.999994787E-9,5.07999992,
,,,627.999952485E-9,127.9999912E-3,,,,,627.999952485E-9,5.07999992,
,,,631.999967027E-9,128.7999898E-3,,,,,631.999967027E-9,5.07999992,
,,,635.999981569E-9,131.2000006E-3,,,,,635.999981569E-9,5.07999992,
,,,639.999996110E-9,130.4000020E-3,,,,,639.999996110E-9,5.07999992,
,,,643.999953809E-9,130.4000020E-3,,,,,643.999953809E-9,5.07999992,
,,,647.999968351E-9,130.4000020E-3,,,,,647.999968351E-9,5.07999992,
,,,651.999982892E-9,131.2000006E-3,,,,,651.999982892E-9,5.07999992,
,,,655.999997434E-9,132.7999979E-3,,,,,655.999997434E-9,5.07999992,
,,,659.999955133E-9,131.2000006E-3,,,,,659.999955133E-9,5.07999992,
,,,663.999969674E-9,131.9999993E-3,,,,,663.999969674E-9,5.07999992,
,,,667.999984216E-9,131.2000006E-3,,,,,667.999984216E-9,5.07999992,
,,,671.999998758E-9,132.7999979E-3,,,,,671.999998758E-9,5.07999992,
,,,675.999956457E-9,133.5999966E-3,,,,,675.999956457E-9,5.07999992,
,,,679.999970998E-9,132.7999979E-3,,,,,679.999970998E-9,5.07999992,
,,,683.999985540E-9,132.7999979E-3,,,,,683.999985540E-9,5.07999992,
,,,688.000000082E-9,132.7999979E-3,,,,,688.000000082E-9,5.07999992,
,,,691.999957780E-9,133.5999966E-3,,,,,691.999957780E-9,5.07999992,
,,,695.999972322E-9,134.3999952E-3,,,,,695.999972322E-9,5.07999992,
,,,699.999986864E-9,133.5999966E-3,,,,,699.999986864E-9,5.07999992,
,,,704.000001406E-9,134.3999952E-3,,,,,704.000001406E-9,5.07999992,
,,,707.999959104E-9,135.1999938E-3,,,,,707.999959104E-9,5.07999992,
,,,711.999973646E-9,134.3999952E-3,,,,,711.999973646E-9,5.07999992,
,,,715.999988188E-9,135.1999938E-3,,,,,715.999988188E-9,5.07999992,
,,,720.000002730E-9,134.3999952E-3,,,,,720.000002730E-9,5.07999992,
,,,723.999960428E-9,135.9999925E-3,,,,,723.999960428E-9,5.07999992,
,,,727.999974970E-9,135.9999925E-3,,,,,727.999974970E-9,5.07999992,
,,,731.999989512E-9,135.9999925E-3,,,,,731.999989512E-9,5.07999992,
,,,735.999947210E-9,135.9999925E-3,,,,,735.999947210E-9,5.07999992,
,,,739.999961752E-9,135.1999938E-3,,,,,739.999961752E-9,5.07999992,
,,,743.999976294E-9,136.7999911E-3,,,,,743.999976294E-9,5.07999992,
,,,747.999990836E-9,135.9999925E-3,,,,,747.999990836E-9,5.07999992,
,,,751.999948534E-9,136.7999911E-3,,,,,751.999948534E-9,5.07999992,
,,,755.999963076E-9,136.7999911E-3,,,,,755.999963076E-9,5.07999992,
,,,759.999977618E-9,135.9999925E-3,,,,,759.999977618E-9,5.07999992,
,,,763.999992159E-9,136.7999911E-3,,,,,763.999992159E-9,5.07999992,
,,,767.999949858E-9,137.5999898E-3,,,,,767.999949858E-9,5.07999992,
,,,771.999964400E-9,136.7999911E-3,,,,,771.999964400E-9,5.07999992,
,,,775.999978941E-9,135.9999925E-3,,,,,775.999978941E-9,5.07999992,
,,,779.999993483E-9,136.7999911E-3,,,,,779.999993483E-9,5.07999992,
,,,783.999951182E-9,137.5999898E-3,,,,,783.999951182E-9,5.07999992,
,,,787.999965723E-9,137.5999898E-3,,,,,787.999965723E-9,5.07999992,
,,,791.999980265E-9,137.5999898E-3,,,,,791.999980265E-9,5.07999992,
,,,795.999994807E-9,136.7999911E-3,,,,,795.999994807E-9,5.07999992,
,,,799.999952505E-9,137.5999898E-3,,,,,799.999952505E-9,5.07999992,
,,,803.999967047E-9,138.4000033E-3,,,,,803.999967047E-9,5.07999992,
,,,807.999981589E-9,138.4000033E-3,,,,,807.999981589E-9,5.07999992,
,,,811.999996131E-9,137.5999898E-3,,,,,811.999996131E-9,5.07999992,
,,,815.999953829E-9,136.7999911E-3,,,,,815.999953829E-9,5.07999992,
,,,819.999968371E-9,138.4000033E-3,,,,,819.999968371E-9,5.07999992,
,,,823.999982913E-9,137.5999898E-3,,,,,823.999982913E-9,5.07999992,
,,,827.999997455E-9,137.5999898E-3,,,,,827.999997455E-9,5.07999992,
,,,831.999955153E-9,137.5999898E-3,,,,,831.999955153E-9,5.07999992,
,,,835.999969695E-9,137.5999898E-3,,,,,835.999969695E-9,5.07999992,
,,,839.999984237E-9,137.5999898E-3,,,,,839.999984237E-9,5.07999992,
,,,843.999998779E-9,137.5999898E-3,,,,,843.999998779E-9,5.07999992,
,,,847.999956477E-9,137.5999898E-3,,,,,847.999956477E-9,5.07999992,
,,,851.999971019E-9,138.4000033E-3,,,,,851.999971019E-9,5.07999992,
,,,855.999985561E-9,138.4000033E-3,,,,,855.999985561E-9,5.07999992,
,,,860.000000102E-9,138.4000033E-3,,,,,860.000000102E-9,5.07999992,
,,,863.999957801E-9,138.4000033E-3,,,,,863.999957801E-9,5.07999992,
,,,867.999972343E-9,138.4000033E-3,,,,,867.999972343E-9,5.07999992,
,,,871.999986884E-9,138.4000033E-3,,,,,871.999986884E-9,5.07999992,
,,,875.999944583E-9,139.2000020E-3,,,,,875.999944583E-9,5.07999992,
,,,879.999959125E-9,139.2000020E-3,,,,,879.999959125E-9,5.07999992,
,,,883.999973667E-9,138.4000033E-3,,,,,883.999973667E-9,5.07999992,
,,,887.999988208E-9,139.2000020E-3,,,,,887.999988208E-9,5.07999992,
,,,891.999945907E-9,138.4000033E-3,,,,,891.999945907E-9,5.07999992,
,,,895.999960449E-9,138.4000033E-3,,,,,895.999960449E-9,5.07999992,
,,,899.999974990E-9,139.2000020E-3,,,,,899.999974990E-9,5.07999992,
,,,903.999989532E-9,138.4000033E-3,,,,,903.999989532E-9,5.07999992,
,,,907.999947231E-9,139.2000020E-3,,,,,907.999947231E-9,5.07999992,
,,,911.999961772E-9,139.2000020E-3,,,,,911.999961772E-9,5.07999992,
,,,915.999976314E-9,139.2000020E-3,,,,,915.999976314E-9,5.07999992,
,,,919.999990856E-9,140.0000006E-3,,,,,919.999990856E-9,5.07999992,
,,,923.999948554E-9,139.2000020E-3,,,,,923.999948554E-9,5.07999992,
,,,927.999963096E-9,139.2000020E-3,,,,,927.999963096E-9,5.07999992,
,,,931.999977638E-9,139.2000020E-3,,,,,931.999977638E-9,5.07999992,
,,,935.999992180E-9,139.2000020E-3,,,,,935.999992180E-9,5.07999992,
,,,939.999949878E-9,140.0000006E-3,,,,,939.999949878E-9,5.07999992,
,,,943.999964420E-9,139.2000020E-3,,,,,943.999964420E-9,5.07999992,
,,,947.999978962E-9,140.0000006E-3,,,,,947.999978962E-9,5.07999992,
,,,951.999993504E-9,140.0000006E-3,,,,,951.999993504E-9,5.07999992,
,,,956.000008046E-9,139.2000020E-3,,,,,956.000008046E-9,5.07999992,
,,,959.999965744E-9,140.0000006E-3,,,,,959.999965744E-9,5.07999992,
,,,963.999923442E-9,140.0000006E-3,,,,,963.999923442E-9,5.07999992,
,,,967.999994828E-9,139.2000020E-3,,,,,967.999994828E-9,5.07999992,
,,,971.999952526E-9,140.0000006E-3,,,,,971.999952526E-9,5.07999992,
,,,976.000023911E-9,140.0000006E-3,,,,,976.000023911E-9,5.07999992,
,,,979.999981610E-9,140.0000006E-3,,,,,979.999981610E-9,5.07999992,
,,,983.999939308E-9,139.2000020E-3,,,,,983.999939308E-9,5.07999992,
,,,988.000010693E-9,139.2000020E-3,,,,,988.000010693E-9,5.07999992,
