2-temperature_flourescence/data/0C/04_000.1C.csv

Record Length,2500,Points,response time,response voltage,,Record Length,2500,Points,signal time,signal voltage,
Sample Interval,39.99999976E-9,s,-4.76000014E-6,-1.6000000E-3,,Sample Interval,39.99999976E-9,s,-4.76000014E-6,199.99998808E-3,
Trigger Point,120.0000050,Samples,-4.72000011E-6,-1.6000000E-3,,Trigger Point,120.0000050,Samples,-4.72000011E-6,199.99998808E-3,
,,,-4.68000007E-6,-1.6000000E-3,,,,,-4.68000007E-6,199.99998808E-3,
,,,-4.64000004E-6,-1.6000000E-3,,,,,-4.64000004E-6,199.99998808E-3,
,,,-4.60000001E-6,-1.6000000E-3,,,,,-4.60000001E-6,199.99998808E-3,
Source,CH1,,-4.55999998E-6,-1.6000000E-3,,Source,CH2,,-4.55999998E-6,159.99999642E-3,
Vertical Units,Volts,,-4.51999995E-6,-1.6000000E-3,,Vertical Units,Volts,,-4.51999995E-6,159.99999642E-3,
Vertical Scale,19.9999995E-3,,-4.48000037E-6,-1.6000000E-3,,Vertical Scale,999.999977648E-3,,-4.48000037E-6,199.99998808E-3,
Vertical Offset,0,,-4.44000034E-6,-1.6000000E-3,,Vertical Offset,0,,-4.44000034E-6,199.99998808E-3,
Horizontal Units,s,,-4.40000031E-6,-1.6000000E-3,,Horizontal Units,s,,-4.40000031E-6,199.99998808E-3,
Horizontal Scale,9.999999939E-6,,-4.36000028E-6,-1.6000000E-3,,Horizontal Scale,9.999999939E-6,,-4.36000028E-6,199.99998808E-3,
Pt Fmt,Y,,-4.32000024E-6,-1.6000000E-3,,Pt Fmt,Y,,-4.32000024E-6,199.99998808E-3,
Yzero,-2.0000000,,-4.28000021E-6,-1.6000000E-3,,Yzero,-3.00000000,,-4.28000021E-6,199.99998808E-3,
Probe Atten,1.000000,,-4.24000018E-6,-1.6000000E-3,,Probe Atten,1.000000,,-4.24000018E-6,199.99998808E-3,
,,,-4.20000015E-6,-1.6000000E-3,,,,,-4.20000015E-6,199.99998808E-3,
Note,TDS 1012C-EDU - 3:12:59 PM   9/4/2024,,-4.16000012E-6,-1.6000000E-3,,Note,TDS 1012C-EDU - 3:12:59 PM   9/4/2024,,-4.16000012E-6,199.99998808E-3,
,,,-4.12000009E-6,-1.6000000E-3,,,,,-4.12000009E-6,199.99998808E-3,
,,,-4.08000005E-6,-1.6000000E-3,,,,,-4.08000005E-6,199.99998808E-3,
,,,-4.04000002E-6,-1.6000000E-3,,,,,-4.04000002E-6,199.99998808E-3,
,,,-3.99999999E-6,-1.6000000E-3,,,,,-3.99999999E-6,199.99998808E-3,
,,,-3.95999996E-6,-1.6000000E-3,,,,,-3.95999996E-6,199.99998808E-3,
,,,-3.92000038E-6,-1.6000000E-3,,,,,-3.92000038E-6,199.99998808E-3,
,,,-3.88000035E-6,-1.6000000E-3,,,,,-3.88000035E-6,199.99998808E-3,
,,,-3.84000032E-6,-1.6000000E-3,,,,,-3.84000032E-6,199.99998808E-3,
,,,-3.80000029E-6,-1.6000000E-3,,,,,-3.80000029E-6,199.99998808E-3,
,,,-3.76000025E-6,-1.6000000E-3,,,,,-3.76000025E-6,199.99998808E-3,
,,,-3.72000022E-6,-1.6000000E-3,,,,,-3.72000022E-6,199.99998808E-3,
,,,-3.68000019E-6,-1.6000000E-3,,,,,-3.68000019E-6,199.99998808E-3,
,,,-3.64000016E-6,-1.6000000E-3,,,,,-3.64000016E-6,199.99998808E-3,
,,,-3.60000013E-6,-1.6000000E-3,,,,,-3.60000013E-6,199.99998808E-3,
,,,-3.56000010E-6,-1.6000000E-3,,,,,-3.56000010E-6,199.99998808E-3,
,,,-3.52000006E-6,-1.6000000E-3,,,,,-3.52000006E-6,159.99999642E-3,
,,,-3.48000026E-6,-1.6000000E-3,,,,,-3.48000026E-6,199.99998808E-3,
,,,-3.44000023E-6,-1.6000000E-3,,,,,-3.44000023E-6,199.99998808E-3,
,,,-3.40000020E-6,-1.6000000E-3,,,,,-3.40000020E-6,199.99998808E-3,
,,,-3.36000016E-6,-1.6000000E-3,,,,,-3.36000016E-6,199.99998808E-3,
,,,-3.32000013E-6,-1.6000000E-3,,,,,-3.32000013E-6,199.99998808E-3,
,,,-3.28000010E-6,-1.6000000E-3,,,,,-3.28000010E-6,199.99998808E-3,
,,,-3.24000007E-6,-1.6000000E-3,,,,,-3.24000007E-6,199.99998808E-3,
,,,-3.20000026E-6,-1.6000000E-3,,,,,-3.20000026E-6,199.99998808E-3,
,,,-3.16000023E-6,-1.6000000E-3,,,,,-3.16000023E-6,199.99998808E-3,
,,,-3.12000020E-6,-1.6000000E-3,,,,,-3.12000020E-6,199.99998808E-3,
,,,-3.08000017E-6,-1.6000000E-3,,,,,-3.08000017E-6,199.99998808E-3,
,,,-3.04000014E-6,-1.6000000E-3,,,,,-3.04000014E-6,199.99998808E-3,
,,,-3.00000011E-6,-1.6000000E-3,,,,,-3.00000011E-6,199.99998808E-3,
,,,-2.96000007E-6,-1.6000000E-3,,,,,-2.96000007E-6,199.99998808E-3,
,,,-2.92000027E-6,-1.6000000E-3,,,,,-2.92000027E-6,199.99998808E-3,
,,,-2.88000024E-6,-1.6000000E-3,,,,,-2.88000024E-6,199.99998808E-3,
,,,-2.84000021E-6,-1.6000000E-3,,,,,-2.84000021E-6,199.99998808E-3,
,,,-2.80000017E-6,-799.999979790E-6,,,,,-2.80000017E-6,199.99998808E-3,
,,,-2.76000014E-6,-1.6000000E-3,,,,,-2.76000014E-6,199.99998808E-3,
,,,-2.72000011E-6,-1.6000000E-3,,,,,-2.72000011E-6,199.99998808E-3,
,,,-2.6800001E-6,-1.6000000E-3,,,,,-2.6800001E-6,199.99998808E-3,
,,,-2.6400003E-6,-1.6000000E-3,,,,,-2.6400003E-6,199.99998808E-3,
,,,-2.6000002E-6,-1.6000000E-3,,,,,-2.6000002E-6,199.99998808E-3,
,,,-2.5600002E-6,-1.6000000E-3,,,,,-2.5600002E-6,199.99998808E-3,
,,,-2.5200002E-6,-1.6000000E-3,,,,,-2.5200002E-6,199.99998808E-3,
,,,-2.4800001E-6,-1.6000000E-3,,,,,-2.4800001E-6,199.99998808E-3,
,,,-2.4400001E-6,-1.6000000E-3,,,,,-2.4400001E-6,199.99998808E-3,
,,,-2.4000001E-6,-1.6000000E-3,,,,,-2.4000001E-6,199.99998808E-3,
,,,-2.3600003E-6,-1.6000000E-3,,,,,-2.3600003E-6,199.99998808E-3,
,,,-2.3200002E-6,-1.6000000E-3,,,,,-2.3200002E-6,199.99998808E-3,
,,,-2.2800002E-6,-1.6000000E-3,,,,,-2.2800002E-6,199.99998808E-3,
,,,-2.2400002E-6,-1.6000000E-3,,,,,-2.2400002E-6,199.99998808E-3,
,,,-2.2000002E-6,-1.6000000E-3,,,,,-2.2000002E-6,199.99998808E-3,
,,,-2.1600001E-6,-1.6000000E-3,,,,,-2.1600001E-6,199.99998808E-3,
,,,-2.1200001E-6,-1.6000000E-3,,,,,-2.1200001E-6,199.99998808E-3,
,,,-2.0800003E-6,-1.6000000E-3,,,,,-2.0800003E-6,199.99998808E-3,
,,,-2.0400003E-6,-1.6000000E-3,,,,,-2.0400003E-6,199.99998808E-3,
,,,-2.0000002E-6,-1.6000000E-3,,,,,-2.0000002E-6,199.99998808E-3,
,,,-1.9600002E-6,-1.6000000E-3,,,,,-1.9600002E-6,199.99998808E-3,
,,,-1.9200002E-6,-1.6000000E-3,,,,,-1.9200002E-6,199.99998808E-3,
,,,-1.8800002E-6,-1.6000000E-3,,,,,-1.8800002E-6,199.99998808E-3,
,,,-1.8400002E-6,-1.6000000E-3,,,,,-1.8400002E-6,199.99998808E-3,
,,,-1.8000002E-6,-1.6000000E-3,,,,,-1.8000002E-6,199.99998808E-3,
,,,-1.7600001E-6,-1.6000000E-3,,,,,-1.7600001E-6,199.99998808E-3,
,,,-1.7200002E-6,-1.6000000E-3,,,,,-1.7200002E-6,199.99998808E-3,
,,,-1.6800002E-6,-1.6000000E-3,,,,,-1.6800002E-6,199.99998808E-3,
,,,-1.6400002E-6,-1.6000000E-3,,,,,-1.6400002E-6,199.99998808E-3,
,,,-1.6000001E-6,-1.6000000E-3,,,,,-1.6000001E-6,199.99998808E-3,
,,,-1.5600002E-6,-1.6000000E-3,,,,,-1.5600002E-6,199.99998808E-3,
,,,-1.5200002E-6,-1.6000000E-3,,,,,-1.5200002E-6,199.99998808E-3,
,,,-1.4800002E-6,-1.6000000E-3,,,,,-1.4800002E-6,199.99998808E-3,
,,,-1.4400002E-6,-1.6000000E-3,,,,,-1.4400002E-6,199.99998808E-3,
,,,-1.4000002E-6,-1.6000000E-3,,,,,-1.4000002E-6,199.99998808E-3,
,,,-1.3600002E-6,-1.6000000E-3,,,,,-1.3600002E-6,199.99998808E-3,
,,,-1.3200001E-6,-1.6000000E-3,,,,,-1.3200001E-6,199.99998808E-3,
,,,-1.2800002E-6,-799.999979790E-6,,,,,-1.2800002E-6,199.99998808E-3,
,,,-1.2400002E-6,-1.6000000E-3,,,,,-1.2400002E-6,199.99998808E-3,
,,,-1.2000002E-6,-799.999979790E-6,,,,,-1.2000002E-6,199.99998808E-3,
,,,-1.1600002E-6,-799.999979790E-6,,,,,-1.1600002E-6,199.99998808E-3,
,,,-1.1200002E-6,-1.6000000E-3,,,,,-1.1200002E-6,199.99998808E-3,
,,,-1.0800002E-6,-1.6000000E-3,,,,,-1.0800002E-6,199.99998808E-3,
,,,-1.0400001E-6,-1.6000000E-3,,,,,-1.0400001E-6,199.99998808E-3,
,,,-1.0000002E-6,-1.6000000E-3,,,,,-1.0000002E-6,199.99998808E-3,
,,,-960.000193118E-9,-1.6000000E-3,,,,,-960.000193118E-9,199.99998808E-3,
,,,-920.000218230E-9,-1.6000000E-3,,,,,-920.000218230E-9,199.99998808E-3,
,,,-880.000186498E-9,-1.6000000E-3,,,,,-880.000186498E-9,159.99999642E-3,
,,,-840.000211610E-9,-1.6000000E-3,,,,,-840.000211610E-9,199.99998808E-3,
,,,-800.000179879E-9,-1.6000000E-3,,,,,-800.000179879E-9,199.99998808E-3,
,,,-760.000204991E-9,-1.6000000E-3,,,,,-760.000204991E-9,199.99998808E-3,
,,,-720.000173260E-9,-1.6000000E-3,,,,,-720.000173260E-9,199.99998808E-3,
,,,-680.000198372E-9,-1.6000000E-3,,,,,-680.000198372E-9,199.99998808E-3,
,,,-640.000166641E-9,-1.6000000E-3,,,,,-640.000166641E-9,199.99998808E-3,
,,,-600.000191753E-9,-799.999979790E-6,,,,,-600.000191753E-9,159.99999642E-3,
,,,-560.000216865E-9,-1.6000000E-3,,,,,-560.000216865E-9,199.99998808E-3,
,,,-520.000185134E-9,-799.999979790E-6,,,,,-520.000185134E-9,199.99998808E-3,
,,,-480.000210246E-9,-799.999979790E-6,,,,,-480.000210246E-9,199.99998808E-3,
,,,-440.000206936E-9,-799.999979790E-6,,,,,-440.000206936E-9,199.99998808E-3,
,,,-400.00020363E-9,-799.999979790E-6,,,,,-400.00020363E-9,199.99998808E-3,
,,,-360.00020032E-9,-1.6000000E-3,,,,,-360.00020032E-9,199.99998808E-3,
,,,-320.00019701E-9,-1.6000000E-3,,,,,-320.00019701E-9,199.99998808E-3,
,,,-280.00019370E-9,-1.6000000E-3,,,,,-280.00019370E-9,199.99998808E-3,
,,,-240.00019039E-9,-1.6000000E-3,,,,,-240.00019039E-9,199.99998808E-3,
,,,-200.00020129E-9,-799.999979790E-6,,,,,-200.00020129E-9,199.99998808E-3,
,,,-160.00019798E-9,-1.6000000E-3,,,,,-160.00019798E-9,199.99998808E-3,
,,,-120.0001947E-9,-1.6000000E-3,,,,,-120.0001947E-9,199.99998808E-3,
,,,-80.000198466E-9,-1.6000000E-3,,,,,-80.000198466E-9,199.99998808E-3,
,,,-40.00019871E-9,-1.6000000E-3,,,,,-40.00019871E-9,199.99998808E-3,
,,,-198.95196342E-15,-1.6000000E-3,,,,,-198.95196342E-15,199.99998808E-3,
,,,39.99980080E-9,-799.999979790E-6,,,,,39.99980080E-9,199.99998808E-3,
,,,79.999800562E-9,-1.6000000E-3,,,,,79.999800562E-9,199.99998808E-3,
,,,119.9997968E-9,-799.999979790E-6,,,,,119.9997968E-9,199.99998808E-3,
,,,159.99980008E-9,-799.999979790E-6,,,,,159.99980008E-9,199.99998808E-3,
,,,199.99980339E-9,-799.999979790E-6,,,,,199.99980339E-9,199.99998808E-3,
,,,239.99979248E-9,-799.999979790E-6,,,,,239.99979248E-9,799.999952316E-3,
,,,279.99979579E-9,-799.999979790E-6,,,,,279.99979579E-9,3.11999989,
,,,319.99979910E-9,-1.6000000E-3,,,,,319.99979910E-9,4.19999981,
,,,359.99980241E-9,-1.6000000E-3,,,,,359.99980241E-9,4.67999983,
,,,399.99980572E-9,1.6000000E-3,,,,,399.99980572E-9,4.92000008,
,,,439.999809032E-9,23.19999970E-3,,,,,439.999809032E-9,5.00000000,
,,,479.999812342E-9,49.59999770E-3,,,,,479.999812342E-9,5.03999996,
,,,519.999787230E-9,74.400000274E-3,,,,,519.999787230E-9,5.03999996,
,,,559.999818961E-9,93.599997461E-3,,,,,559.999818961E-9,5.07999992,
,,,599.999793849E-9,110.3999987E-3,,,,,599.999793849E-9,5.07999992,
,,,639.999825580E-9,119.1999987E-3,,,,,639.999825580E-9,5.07999992,
,,,679.999800468E-9,126.3999939E-3,,,,,679.999800468E-9,5.07999992,
,,,719.999775356E-9,131.2000006E-3,,,,,719.999775356E-9,5.07999992,
,,,759.999807087E-9,135.1999938E-3,,,,,759.999807087E-9,5.07999992,
,,,799.999781975E-9,137.5999898E-3,,,,,799.999781975E-9,5.07999992,
,,,839.999813707E-9,138.4000033E-3,,,,,839.999813707E-9,5.07999992,
,,,879.999788594E-9,140.0000006E-3,,,,,879.999788594E-9,5.03999996,
,,,919.999820326E-9,140.0000006E-3,,,,,919.999820326E-9,5.03999996,
,,,959.999852057E-9,141.5999979E-3,,,,,959.999852057E-9,5.03999996,
,,,999.999770102E-9,141.5999979E-3,,,,,999.999770102E-9,5.03999996,
,,,1.0399998E-6,141.5999979E-3,,,,,1.0399998E-6,5.03999996,
,,,1.0799998E-6,140.7999992E-3,,,,,1.0799998E-6,5.03999996,
,,,1.1199998E-6,140.7999992E-3,,,,,1.1199998E-6,5.03999996,
,,,1.1599998E-6,141.5999979E-3,,,,,1.1599998E-6,5.03999996,
,,,1.1999998E-6,140.7999992E-3,,,,,1.1999998E-6,5.03999996,
,,,1.2399998E-6,141.5999979E-3,,,,,1.2399998E-6,5.03999996,
,,,1.2799998E-6,140.7999992E-3,,,,,1.2799998E-6,5.03999996,
,,,1.3199998E-6,141.5999979E-3,,,,,1.3199998E-6,5.03999996,
,,,1.3599998E-6,140.7999992E-3,,,,,1.3599998E-6,5.03999996,
,,,1.3999997E-6,141.5999979E-3,,,,,1.3999997E-6,5.03999996,
,,,1.4399998E-6,141.5999979E-3,,,,,1.4399998E-6,5.03999996,
,,,1.4799998E-6,141.5999979E-3,,,,,1.4799998E-6,5.03999996,
,,,1.5199998E-6,140.7999992E-3,,,,,1.5199998E-6,5.03999996,
,,,1.5599998E-6,141.5999979E-3,,,,,1.5599998E-6,5.03999996,
,,,1.5999998E-6,140.7999992E-3,,,,,1.5999998E-6,5.03999996,
,,,1.6399998E-6,141.5999979E-3,,,,,1.6399998E-6,5.03999996,
,,,1.6799997E-6,140.7999992E-3,,,,,1.6799997E-6,5.03999996,
,,,1.7199998E-6,140.7999992E-3,,,,,1.7199998E-6,5.03999996,
,,,1.7599998E-6,140.7999992E-3,,,,,1.7599998E-6,5.03999996,
,,,1.7999998E-6,140.7999992E-3,,,,,1.7999998E-6,5.03999996,
,,,1.8399998E-6,140.7999992E-3,,,,,1.8399998E-6,5.03999996,
,,,1.8799998E-6,140.7999992E-3,,,,,1.8799998E-6,5.03999996,
,,,1.9199997E-6,140.7999992E-3,,,,,1.9199997E-6,5.03999996,
,,,1.9599997E-6,140.7999992E-3,,,,,1.9599997E-6,5.03999996,
,,,1.9999998E-6,141.5999979E-3,,,,,1.9999998E-6,5.03999996,
,,,2.0399998E-6,141.5999979E-3,,,,,2.0399998E-6,5.03999996,
,,,2.0799998E-6,141.5999979E-3,,,,,2.0799998E-6,5.03999996,
,,,2.1199999E-6,141.5999979E-3,,,,,2.1199999E-6,5.03999996,
,,,2.1599999E-6,141.5999979E-3,,,,,2.1599999E-6,5.03999996,
,,,2.1999997E-6,141.5999979E-3,,,,,2.1999997E-6,5.03999996,
,,,2.2399997E-6,141.5999979E-3,,,,,2.2399997E-6,5.03999996,
,,,2.2799998E-6,141.5999979E-3,,,,,2.2799998E-6,4.83999968,
,,,2.3199998E-6,141.5999979E-3,,,,,2.3199998E-6,-519.999980927E-3,
,,,2.3599998E-6,141.5999979E-3,,,,,2.3599998E-6,79.999998212E-3,
,,,2.3999999E-6,140.7999992E-3,,,,,2.3999999E-6,119.9999973E-3,
,,,2.4399999E-6,141.5999979E-3,,,,,2.4399999E-6,119.9999973E-3,
,,,2.4799997E-6,141.5999979E-3,,,,,2.4799997E-6,159.99999642E-3,
,,,2.5199997E-6,140.7999992E-3,,,,,2.5199997E-6,159.99999642E-3,
,,,2.5599998E-6,141.5999979E-3,,,,,2.5599998E-6,159.99999642E-3,
,,,2.5999998E-6,140.7999992E-3,,,,,2.5999998E-6,159.99999642E-3,
,,,2.6399998E-6,141.5999979E-3,,,,,2.6399998E-6,159.99999642E-3,
,,,2.6799999E-6,139.2000020E-3,,,,,2.6799999E-6,159.99999642E-3,
,,,2.71999988E-6,136.7999911E-3,,,,,2.71999988E-6,159.99999642E-3,
,,,2.75999969E-6,132.7999979E-3,,,,,2.75999969E-6,159.99999642E-3,
,,,2.79999972E-6,130.4000020E-3,,,,,2.79999972E-6,159.99999642E-3,
,,,2.83999975E-6,127.9999912E-3,,,,,2.83999975E-6,159.99999642E-3,
,,,2.87999978E-6,126.3999939E-3,,,,,2.87999978E-6,159.99999642E-3,
,,,2.91999982E-6,121.5999946E-3,,,,,2.91999982E-6,159.99999642E-3,
,,,2.95999985E-6,118.4000000E-3,,,,,2.95999985E-6,159.99999642E-3,
,,,2.99999988E-6,115.1999980E-3,,,,,2.99999988E-6,159.99999642E-3,
,,,3.03999968E-6,113.6000007E-3,,,,,3.03999968E-6,159.99999642E-3,
,,,3.07999971E-6,110.3999987E-3,,,,,3.07999971E-6,159.99999642E-3,
,,,3.11999975E-6,109.6000001E-3,,,,,3.11999975E-6,159.99999642E-3,
,,,3.15999978E-6,109.6000001E-3,,,,,3.15999978E-6,159.99999642E-3,
,,,3.19999981E-6,108.7999940E-3,,,,,3.19999981E-6,159.99999642E-3,
,,,3.23999984E-6,106.3999981E-3,,,,,3.23999984E-6,159.99999642E-3,
,,,3.27999987E-6,106.3999981E-3,,,,,3.27999987E-6,159.99999642E-3,
,,,3.31999968E-6,107.1999967E-3,,,,,3.31999968E-6,159.99999642E-3,
,,,3.35999971E-6,107.1999967E-3,,,,,3.35999971E-6,159.99999642E-3,
,,,3.39999974E-6,105.5999994E-3,,,,,3.39999974E-6,159.99999642E-3,
,,,3.43999977E-6,104.8000008E-3,,,,,3.43999977E-6,159.99999642E-3,
,,,3.47999980E-6,100.8000001E-3,,,,,3.47999980E-6,159.99999642E-3,
,,,3.51999984E-6,102.3999974E-3,,,,,3.51999984E-6,159.99999642E-3,
,,,3.55999987E-6,102.3999974E-3,,,,,3.55999987E-6,159.99999642E-3,
,,,3.59999967E-6,99.999994040E-3,,,,,3.59999967E-6,159.99999642E-3,
,,,3.63999970E-6,101.5999988E-3,,,,,3.63999970E-6,159.99999642E-3,
,,,3.67999974E-6,101.5999988E-3,,,,,3.67999974E-6,159.99999642E-3,
,,,3.71999977E-6,99.999994040E-3,,,,,3.71999977E-6,199.99998808E-3,
,,,3.75999980E-6,97.599998116E-3,,,,,3.75999980E-6,159.99999642E-3,
,,,3.79999983E-6,97.599998116E-3,,,,,3.79999983E-6,159.99999642E-3,
,,,3.83999986E-6,100.8000001E-3,,,,,3.83999986E-6,159.99999642E-3,
,,,3.87999989E-6,99.199995399E-3,,,,,3.87999989E-6,199.99998808E-3,
,,,3.91999993E-6,98.399996758E-3,,,,,3.91999993E-6,199.99998808E-3,
,,,3.95999996E-6,96.000000834E-3,,,,,3.95999996E-6,199.99998808E-3,
,,,3.99999999E-6,97.599998116E-3,,,,,3.99999999E-6,199.99998808E-3,
,,,4.03999957E-6,97.599998116E-3,,,,,4.03999957E-6,199.99998808E-3,
,,,4.07999960E-6,97.599998116E-3,,,,,4.07999960E-6,199.99998808E-3,
,,,4.11999963E-6,96.000000834E-3,,,,,4.11999963E-6,199.99998808E-3,
,,,4.15999966E-6,97.599998116E-3,,,,,4.15999966E-6,159.99999642E-3,
,,,4.19999969E-6,98.399996758E-3,,,,,4.19999969E-6,199.99998808E-3,
,,,4.23999973E-6,96.799999475E-3,,,,,4.23999973E-6,199.99998808E-3,
,,,4.27999976E-6,96.000000834E-3,,,,,4.27999976E-6,199.99998808E-3,
,,,4.31999979E-6,96.000000834E-3,,,,,4.31999979E-6,199.99998808E-3,
,,,4.35999982E-6,96.000000834E-3,,,,,4.35999982E-6,159.99999642E-3,
,,,4.39999985E-6,96.799999475E-3,,,,,4.39999985E-6,199.99998808E-3,
,,,4.43999988E-6,94.399996102E-3,,,,,4.43999988E-6,199.99998808E-3,
,,,4.47999992E-6,96.000000834E-3,,,,,4.47999992E-6,199.99998808E-3,
,,,4.51999995E-6,96.000000834E-3,,,,,4.51999995E-6,199.99998808E-3,
,,,4.55999998E-6,96.000000834E-3,,,,,4.55999998E-6,199.99998808E-3,
,,,4.59999956E-6,96.000000834E-3,,,,,4.59999956E-6,199.99998808E-3,
,,,4.63999959E-6,96.799999475E-3,,,,,4.63999959E-6,199.99998808E-3,
,,,4.67999962E-6,96.799999475E-3,,,,,4.67999962E-6,199.99998808E-3,
,,,4.71999965E-6,96.000000834E-3,,,,,4.71999965E-6,199.99998808E-3,
,,,4.75999968E-6,96.000000834E-3,,,,,4.75999968E-6,199.99998808E-3,
,,,4.79999972E-6,97.599998116E-3,,,,,4.79999972E-6,199.99998808E-3,
,,,4.83999975E-6,95.199994743E-3,,,,,4.83999975E-6,199.99998808E-3,
,,,4.87999978E-6,92.799998820E-3,,,,,4.87999978E-6,199.99998808E-3,
,,,4.91999981E-6,92.000000179E-3,,,,,4.91999981E-6,199.99998808E-3,
,,,4.95999984E-6,92.000000179E-3,,,,,4.95999984E-6,199.99998808E-3,
,,,4.99999987E-6,92.000000179E-3,,,,,4.99999987E-6,199.99998808E-3,
,,,5.03999991E-6,92.799998820E-3,,,,,5.03999991E-6,199.99998808E-3,
,,,5.07999994E-6,95.199994743E-3,,,,,5.07999994E-6,199.99998808E-3,
,,,5.11999997E-6,92.799998820E-3,,,,,5.11999997E-6,199.99998808E-3,
,,,5.15999955E-6,92.799998820E-3,,,,,5.15999955E-6,199.99998808E-3,
,,,5.19999958E-6,94.399996102E-3,,,,,5.19999958E-6,199.99998808E-3,
,,,5.23999961E-6,95.199994743E-3,,,,,5.23999961E-6,199.99998808E-3,
,,,5.27999964E-6,93.599997461E-3,,,,,5.27999964E-6,199.99998808E-3,
,,,5.31999967E-6,93.599997461E-3,,,,,5.31999967E-6,199.99998808E-3,
,,,5.35999970E-6,94.399996102E-3,,,,,5.35999970E-6,199.99998808E-3,
,,,5.39999974E-6,93.599997461E-3,,,,,5.39999974E-6,199.99998808E-3,
,,,5.43999977E-6,92.000000179E-3,,,,,5.43999977E-6,199.99998808E-3,
,,,5.47999980E-6,91.199994087E-3,,,,,5.47999980E-6,199.99998808E-3,
,,,5.51999983E-6,90.399995446E-3,,,,,5.51999983E-6,199.99998808E-3,
,,,5.55999986E-6,88.799998164E-3,,,,,5.55999986E-6,199.99998808E-3,
,,,5.59999989E-6,89.599996805E-3,,,,,5.59999989E-6,199.99998808E-3,
,,,5.63999993E-6,86.399994791E-3,,,,,5.63999993E-6,199.99998808E-3,
,,,5.67999996E-6,89.599996805E-3,,,,,5.67999996E-6,199.99998808E-3,
,,,5.71999999E-6,87.200000882E-3,,,,,5.71999999E-6,199.99998808E-3,
,,,5.75999957E-6,89.599996805E-3,,,,,5.75999957E-6,199.99998808E-3,
,,,5.79999960E-6,90.399995446E-3,,,,,5.79999960E-6,199.99998808E-3,
,,,5.83999963E-6,92.000000179E-3,,,,,5.83999963E-6,199.99998808E-3,
,,,5.87999966E-6,92.000000179E-3,,,,,5.87999966E-6,199.99998808E-3,
,,,5.91999969E-6,92.000000179E-3,,,,,5.91999969E-6,199.99998808E-3,
,,,5.95999973E-6,90.399995446E-3,,,,,5.95999973E-6,199.99998808E-3,
,,,5.99999976E-6,91.199994087E-3,,,,,5.99999976E-6,199.99998808E-3,
,,,6.03999979E-6,92.000000179E-3,,,,,6.03999979E-6,199.99998808E-3,
,,,6.07999982E-6,91.199994087E-3,,,,,6.07999982E-6,199.99998808E-3,
,,,6.11999985E-6,92.000000179E-3,,,,,6.11999985E-6,199.99998808E-3,
,,,6.15999988E-6,88.799998164E-3,,,,,6.15999988E-6,199.99998808E-3,
,,,6.19999992E-6,87.200000882E-3,,,,,6.19999992E-6,199.99998808E-3,
,,,6.23999995E-6,87.999999523E-3,,,,,6.23999995E-6,199.99998808E-3,
,,,6.27999998E-6,87.999999523E-3,,,,,6.27999998E-6,199.99998808E-3,
,,,6.31999956E-6,87.999999523E-3,,,,,6.31999956E-6,199.99998808E-3,
,,,6.35999959E-6,85.599996150E-3,,,,,6.35999959E-6,199.99998808E-3,
,,,6.39999962E-6,85.599996150E-3,,,,,6.39999962E-6,199.99998808E-3,
,,,6.43999965E-6,86.399994791E-3,,,,,6.43999965E-6,199.99998808E-3,
,,,6.47999968E-6,85.599996150E-3,,,,,6.47999968E-6,199.99998808E-3,
,,,6.51999972E-6,87.999999523E-3,,,,,6.51999972E-6,199.99998808E-3,
,,,6.55999975E-6,87.200000882E-3,,,,,6.55999975E-6,199.99998808E-3,
,,,6.59999978E-6,87.200000882E-3,,,,,6.59999978E-6,199.99998808E-3,
,,,6.63999981E-6,83.999998868E-3,,,,,6.63999981E-6,199.99998808E-3,
,,,6.67999984E-6,83.999998868E-3,,,,,6.67999984E-6,199.99998808E-3,
